---------------------------------------------
Setting special contour style...
---------------------------------------------
---------------------------------------------
Loading ATLAS style Macros ...
---------------------------------------------
0
100000
Finished writing data to /eos/atlas/atlascerngroupdisk/det-hgtd/testbeam/February2024/Alvin/ntuples/Alvin-February2024-00410.root
