---------------------------------------------
Setting special contour style...
---------------------------------------------
---------------------------------------------
Loading ATLAS style Macros ...
---------------------------------------------
checking input dir.....
 --- /eos/atlas/atlascerngroupdisk/det-hgtd/testbeam/February2024/Digitizer/run00416
/eos/atlas/atlascerngroupdisk/det-hgtd/testbeam/February2024/Digitizer

 --- These channels are present in 416: [1 2 3] --- 
 file: Tek0000_ch1.wfm
 file: Tek0000_ch2.wfm
 file: Tek0000_ch3.wfm
[1 2 3]
reading data: /eos/atlas/atlascerngroupdisk/det-hgtd/testbeam/February2024/Digitizer/run00416/Tek0000_ch1.wfm
 [*] Decoding done... takes [0.029s]
 [*] Ploting done... takes [0.000s]
 [*] Analyze done... takes [0.487s]
 [*] Fig Saving done... takes [0.000s]
reading data: /eos/atlas/atlascerngroupdisk/det-hgtd/testbeam/February2024/Digitizer/run00416/Tek0000_ch2.wfm
 [*] Decoding done... takes [0.129s]
 [*] Ploting done... takes [0.000s]
 [*] Analyze done... takes [0.447s]
 [*] Fig Saving done... takes [0.000s]
reading data: /eos/atlas/atlascerngroupdisk/det-hgtd/testbeam/February2024/Digitizer/run00416/Tek0000_ch3.wfm
 [*] Decoding done... takes [0.054s]
 [*] Ploting done... takes [0.000s]
 [*] Analyze done... takes [0.400s]
 [*] Fig Saving done... takes [0.000s]
 file: Tek0000_ch3.wfm 0 3
