---------------------------------------------
Setting special contour style...
---------------------------------------------
---------------------------------------------
Loading ATLAS style Macros ...
---------------------------------------------
0
460000
780000
960000
1320000
1820000
1980000
2720000
2840000
3000000
4160000
4220000
5420000
5600000
5760000
Finished writing data to /eos/atlas/atlascerngroupdisk/det-hgtd/testbeam/February2024/Alvin/ntuples/Alvin-February2024-00493.root
