---------------------------------------------
Setting special contour style...
---------------------------------------------
---------------------------------------------
Loading ATLAS style Macros ...
---------------------------------------------
0
40000
220000
380000
440000
780000
840000
1020000
1260000
1540000
1640000
1900000
1940000
2060000
2260000
2400000
2600000
Finished writing data to /eos/atlas/atlascerngroupdisk/det-hgtd/testbeam/February2024/Alvin/ntuples/Alvin-February2024-00446.root
