---------------------------------------------
Setting special contour style...
---------------------------------------------
---------------------------------------------
Loading ATLAS style Macros ...
---------------------------------------------
TNetXNGFile::Init:0: RuntimeWarning: file root://eosatlas.cern.ch//eos/atlas/atlascerngroupdisk/det-hgtd/testbeam/February2024/Digitizer/ntuples/Digitizer-February2024-00482.root probably not closed, trying to recover
TNetXNGFile::Init:0: RuntimeWarning: no keys recovered, file has been made a Zombie
Error in <TNetXNGFile::TNetXNGFile>: Object is in 'zombie' state
TFile::Init:0: RuntimeWarning: file /eos/atlas/atlascerngroupdisk/det-hgtd/testbeam/February2024/Digitizer/ntuples/Digitizer-February2024-00482.root probably not closed, trying to recover
TFile::Init:0: RuntimeWarning: no keys recovered, file has been made a Zombie
Traceback (most recent call last):
  File "/afs/cern.ch/user/h/hgtdtb/Software/Scripts/OnlineMonitoring/reconstruction/Matching.py", line 283, in <module>
    merging(asic_f, digitizer_file, save_file,clock_channel, probe_channel, mcp_channel, toa_lsb_file=None, tot_lsb_file=None)
  File "/afs/cern.ch/user/h/hgtdtb/Software/Scripts/OnlineMonitoring/reconstruction/Matching.py", line 51, in merging
    probefile =  ROOT.TFile.Open(probeFileName,"READ")
  File "/usr/lib64/python3.9/site-packages/ROOT/_pythonization/_tfile.py", line 103, in _TFileOpen
    raise OSError('Failed to open file {}'.format(str(args[0])))
OSError: Failed to open file /eos/atlas/atlascerngroupdisk/det-hgtd/testbeam/February2024/Digitizer/ntuples/Digitizer-February2024-00482.root
