---------------------------------------------
Setting special contour style...
---------------------------------------------
---------------------------------------------
Loading ATLAS style Macros ...
---------------------------------------------
checking input dir.....
 --- /eos/atlas/atlascerngroupdisk/det-hgtd/testbeam/February2024/Digitizer/run00427
/eos/atlas/atlascerngroupdisk/det-hgtd/testbeam/February2024/Digitizer

 --- These channels are present in 427: [1 2 3] --- 
 file: Tek0000_ch1.wfm
 file: Tek0000_ch2.wfm
 file: Tek0000_ch3.wfm
[1 2 3]
reading data: /eos/atlas/atlascerngroupdisk/det-hgtd/testbeam/February2024/Digitizer/run00427/Tek0000_ch1.wfm
 [*] Decoding done... takes [0.964s]
 [*] Ploting done... takes [0.000s]
 [*] Analyze done... takes [4.947s]
 [*] Fig Saving done... takes [0.000s]
reading data: /eos/atlas/atlascerngroupdisk/det-hgtd/testbeam/February2024/Digitizer/run00427/Tek0000_ch2.wfm
 [*] Decoding done... takes [0.205s]
 [*] Ploting done... takes [0.000s]
 [*] Analyze done... takes [4.604s]
 [*] Fig Saving done... takes [0.000s]
reading data: /eos/atlas/atlascerngroupdisk/det-hgtd/testbeam/February2024/Digitizer/run00427/Tek0000_ch3.wfm
 [*] Decoding done... takes [0.128s]
 [*] Ploting done... takes [0.000s]
 [*] Analyze done... takes [4.039s]
 [*] Fig Saving done... takes [0.000s]
 file: Tek0000_ch3.wfm 0 3
 file: Tek0001_ch1.wfm
 file: Tek0001_ch2.wfm
 file: Tek0001_ch3.wfm
[1 2 3]
reading data: /eos/atlas/atlascerngroupdisk/det-hgtd/testbeam/February2024/Digitizer/run00427/Tek0001_ch1.wfm
 [*] Decoding done... takes [0.125s]
 [*] Ploting done... takes [0.000s]
 [*] Analyze done... takes [4.564s]
 [*] Fig Saving done... takes [0.000s]
reading data: /eos/atlas/atlascerngroupdisk/det-hgtd/testbeam/February2024/Digitizer/run00427/Tek0001_ch2.wfm
 [*] Decoding done... takes [0.126s]
 [*] Ploting done... takes [0.000s]
 [*] Analyze done... takes [4.425s]
 [*] Fig Saving done... takes [0.000s]
reading data: /eos/atlas/atlascerngroupdisk/det-hgtd/testbeam/February2024/Digitizer/run00427/Tek0001_ch3.wfm
 [*] Decoding done... takes [0.491s]
 [*] Ploting done... takes [0.000s]
 [*] Analyze done... takes [4.024s]
 [*] Fig Saving done... takes [0.000s]
 file: Tek0001_ch3.wfm 1 3
 file: Tek0002_ch1.wfm
 file: Tek0002_ch2.wfm
 file: Tek0002_ch3.wfm
[1 2 3]
reading data: /eos/atlas/atlascerngroupdisk/det-hgtd/testbeam/February2024/Digitizer/run00427/Tek0002_ch1.wfm
 [*] Decoding done... takes [0.138s]
 [*] Ploting done... takes [0.000s]
 [*] Analyze done... takes [4.511s]
 [*] Fig Saving done... takes [0.000s]
reading data: /eos/atlas/atlascerngroupdisk/det-hgtd/testbeam/February2024/Digitizer/run00427/Tek0002_ch2.wfm
 [*] Decoding done... takes [0.127s]
 [*] Ploting done... takes [0.000s]
 [*] Analyze done... takes [4.396s]
 [*] Fig Saving done... takes [0.000s]
reading data: /eos/atlas/atlascerngroupdisk/det-hgtd/testbeam/February2024/Digitizer/run00427/Tek0002_ch3.wfm
 [*] Decoding done... takes [0.137s]
 [*] Ploting done... takes [0.000s]
 [*] Analyze done... takes [3.922s]
 [*] Fig Saving done... takes [0.000s]
 file: Tek0002_ch3.wfm 2 3
 file: Tek0003_ch1.wfm
 file: Tek0003_ch2.wfm
 file: Tek0003_ch3.wfm
[1 2 3]
reading data: /eos/atlas/atlascerngroupdisk/det-hgtd/testbeam/February2024/Digitizer/run00427/Tek0003_ch1.wfm
 [*] Decoding done... takes [0.132s]
 [*] Ploting done... takes [0.000s]
 [*] Analyze done... takes [4.355s]
 [*] Fig Saving done... takes [0.000s]
reading data: /eos/atlas/atlascerngroupdisk/det-hgtd/testbeam/February2024/Digitizer/run00427/Tek0003_ch2.wfm
 [*] Decoding done... takes [0.168s]
 [*] Ploting done... takes [0.000s]
 [*] Analyze done... takes [4.180s]
 [*] Fig Saving done... takes [0.000s]
reading data: /eos/atlas/atlascerngroupdisk/det-hgtd/testbeam/February2024/Digitizer/run00427/Tek0003_ch3.wfm
 [*] Decoding done... takes [0.103s]
 [*] Ploting done... takes [0.000s]
 [*] Analyze done... takes [3.625s]
 [*] Fig Saving done... takes [0.000s]
 file: Tek0003_ch3.wfm 3 3
