---------------------------------------------
Setting special contour style...
---------------------------------------------
---------------------------------------------
Loading ATLAS style Macros ...
---------------------------------------------
0
20000
1120000
1200000
1800000
2120000
2360000
2540000
Finished writing data to /eos/atlas/atlascerngroupdisk/det-hgtd/testbeam/February2024/Alvin/ntuples/Alvin-February2024-00483.root
