---------------------------------------------
Setting special contour style...
---------------------------------------------
---------------------------------------------
Loading ATLAS style Macros ...
---------------------------------------------
checking input dir.....
 --- /eos/atlas/atlascerngroupdisk/det-hgtd/testbeam/February2024/Digitizer/run00437
/eos/atlas/atlascerngroupdisk/det-hgtd/testbeam/February2024/Digitizer

 --- These channels are present in 437: [1 2 3] --- 
 file: Tek0000_ch1.wfm
 file: Tek0000_ch2.wfm
 file: Tek0000_ch3.wfm
[1 2 3]
reading data: /eos/atlas/atlascerngroupdisk/det-hgtd/testbeam/February2024/Digitizer/run00437/Tek0000_ch1.wfm
 [*] Decoding done... takes [0.257s]
 [*] Ploting done... takes [0.000s]
 [*] Analyze done... takes [4.911s]
 [*] Fig Saving done... takes [0.000s]
reading data: /eos/atlas/atlascerngroupdisk/det-hgtd/testbeam/February2024/Digitizer/run00437/Tek0000_ch2.wfm
 [*] Decoding done... takes [0.195s]
 [*] Ploting done... takes [0.000s]
 [*] Analyze done... takes [4.898s]
 [*] Fig Saving done... takes [0.000s]
reading data: /eos/atlas/atlascerngroupdisk/det-hgtd/testbeam/February2024/Digitizer/run00437/Tek0000_ch3.wfm
 [*] Decoding done... takes [0.180s]
 [*] Ploting done... takes [0.000s]
 [*] Analyze done... takes [4.312s]
 [*] Fig Saving done... takes [0.000s]
 file: Tek0000_ch3.wfm 0 3
 file: Tek0001_ch1.wfm
 file: Tek0001_ch2.wfm
 file: Tek0001_ch3.wfm
[1 2 3]
reading data: /eos/atlas/atlascerngroupdisk/det-hgtd/testbeam/February2024/Digitizer/run00437/Tek0001_ch1.wfm
 [*] Decoding done... takes [0.427s]
 [*] Ploting done... takes [0.000s]
 [*] Analyze done... takes [5.102s]
 [*] Fig Saving done... takes [0.000s]
reading data: /eos/atlas/atlascerngroupdisk/det-hgtd/testbeam/February2024/Digitizer/run00437/Tek0001_ch2.wfm
 [*] Decoding done... takes [0.227s]
 [*] Ploting done... takes [0.000s]
 [*] Analyze done... takes [4.810s]
 [*] Fig Saving done... takes [0.000s]
reading data: /eos/atlas/atlascerngroupdisk/det-hgtd/testbeam/February2024/Digitizer/run00437/Tek0001_ch3.wfm
 [*] Decoding done... takes [0.228s]
 [*] Ploting done... takes [0.000s]
 [*] Analyze done... takes [4.302s]
 [*] Fig Saving done... takes [0.000s]
 file: Tek0001_ch3.wfm 1 3
 file: Tek0002_ch1.wfm
 file: Tek0002_ch2.wfm
 file: Tek0002_ch3.wfm
[1 2 3]
reading data: /eos/atlas/atlascerngroupdisk/det-hgtd/testbeam/February2024/Digitizer/run00437/Tek0002_ch1.wfm
 [*] Decoding done... takes [0.310s]
 [*] Ploting done... takes [0.000s]
 [*] Analyze done... takes [4.967s]
 [*] Fig Saving done... takes [0.000s]
reading data: /eos/atlas/atlascerngroupdisk/det-hgtd/testbeam/February2024/Digitizer/run00437/Tek0002_ch2.wfm
 [*] Decoding done... takes [0.188s]
 [*] Ploting done... takes [0.000s]
 [*] Analyze done... takes [4.722s]
 [*] Fig Saving done... takes [0.000s]
reading data: /eos/atlas/atlascerngroupdisk/det-hgtd/testbeam/February2024/Digitizer/run00437/Tek0002_ch3.wfm
 [*] Decoding done... takes [0.183s]
 [*] Ploting done... takes [0.000s]
 [*] Analyze done... takes [4.347s]
 [*] Fig Saving done... takes [0.000s]
 file: Tek0002_ch3.wfm 2 3
 file: Tek0003_ch1.wfm
 file: Tek0003_ch2.wfm
 file: Tek0003_ch3.wfm
[1 2 3]
reading data: /eos/atlas/atlascerngroupdisk/det-hgtd/testbeam/February2024/Digitizer/run00437/Tek0003_ch1.wfm
 [*] Decoding done... takes [0.153s]
 [*] Ploting done... takes [0.000s]
 [*] Analyze done... takes [4.643s]
 [*] Fig Saving done... takes [0.000s]
reading data: /eos/atlas/atlascerngroupdisk/det-hgtd/testbeam/February2024/Digitizer/run00437/Tek0003_ch2.wfm
 [*] Decoding done... takes [0.145s]
 [*] Ploting done... takes [0.000s]
 [*] Analyze done... takes [4.553s]
 [*] Fig Saving done... takes [0.000s]
reading data: /eos/atlas/atlascerngroupdisk/det-hgtd/testbeam/February2024/Digitizer/run00437/Tek0003_ch3.wfm
 [*] Decoding done... takes [0.247s]
 [*] Ploting done... takes [0.000s]
 [*] Analyze done... takes [4.115s]
 [*] Fig Saving done... takes [0.000s]
 file: Tek0003_ch3.wfm 3 3
 file: Tek0004_ch1.wfm
 file: Tek0004_ch2.wfm
 file: Tek0004_ch3.wfm
[1 2 3]
reading data: /eos/atlas/atlascerngroupdisk/det-hgtd/testbeam/February2024/Digitizer/run00437/Tek0004_ch1.wfm
 [*] Decoding done... takes [0.109s]
 [*] Ploting done... takes [0.000s]
 [*] Analyze done... takes [4.592s]
 [*] Fig Saving done... takes [0.000s]
reading data: /eos/atlas/atlascerngroupdisk/det-hgtd/testbeam/February2024/Digitizer/run00437/Tek0004_ch2.wfm
 [*] Decoding done... takes [0.189s]
 [*] Ploting done... takes [0.000s]
 [*] Analyze done... takes [4.500s]
 [*] Fig Saving done... takes [0.000s]
reading data: /eos/atlas/atlascerngroupdisk/det-hgtd/testbeam/February2024/Digitizer/run00437/Tek0004_ch3.wfm
 [*] Decoding done... takes [0.348s]
 [*] Ploting done... takes [0.000s]
 [*] Analyze done... takes [4.207s]
 [*] Fig Saving done... takes [0.000s]
 file: Tek0004_ch3.wfm 4 3
 file: Tek0005_ch1.wfm
 file: Tek0005_ch2.wfm
 file: Tek0005_ch3.wfm
[1 2 3]
reading data: /eos/atlas/atlascerngroupdisk/det-hgtd/testbeam/February2024/Digitizer/run00437/Tek0005_ch1.wfm
 [*] Decoding done... takes [0.228s]
 [*] Ploting done... takes [0.000s]
 [*] Analyze done... takes [4.705s]
 [*] Fig Saving done... takes [0.000s]
reading data: /eos/atlas/atlascerngroupdisk/det-hgtd/testbeam/February2024/Digitizer/run00437/Tek0005_ch2.wfm
 [*] Decoding done... takes [0.150s]
 [*] Ploting done... takes [0.000s]
 [*] Analyze done... takes [4.299s]
 [*] Fig Saving done... takes [0.000s]
reading data: /eos/atlas/atlascerngroupdisk/det-hgtd/testbeam/February2024/Digitizer/run00437/Tek0005_ch3.wfm
 [*] Decoding done... takes [0.137s]
 [*] Ploting done... takes [0.000s]
 [*] Analyze done... takes [3.593s]
 [*] Fig Saving done... takes [0.000s]
 file: Tek0005_ch3.wfm 5 3
 file: Tek0006_ch1.wfm
 file: Tek0006_ch2.wfm
 file: Tek0006_ch3.wfm
[1 2 3]
reading data: /eos/atlas/atlascerngroupdisk/det-hgtd/testbeam/February2024/Digitizer/run00437/Tek0006_ch1.wfm
 [*] Decoding done... takes [0.121s]
 [*] Ploting done... takes [0.000s]
 [*] Analyze done... takes [4.680s]
 [*] Fig Saving done... takes [0.000s]
reading data: /eos/atlas/atlascerngroupdisk/det-hgtd/testbeam/February2024/Digitizer/run00437/Tek0006_ch2.wfm
 [*] Decoding done... takes [0.148s]
 [*] Ploting done... takes [0.000s]
 [*] Analyze done... takes [4.442s]
 [*] Fig Saving done... takes [0.000s]
reading data: /eos/atlas/atlascerngroupdisk/det-hgtd/testbeam/February2024/Digitizer/run00437/Tek0006_ch3.wfm
 [*] Decoding done... takes [0.110s]
 [*] Ploting done... takes [0.000s]
 [*] Analyze done... takes [3.639s]
 [*] Fig Saving done... takes [0.000s]
 file: Tek0006_ch3.wfm 6 3
 file: Tek0007_ch1.wfm
 file: Tek0007_ch2.wfm
 file: Tek0007_ch3.wfm
[1 2 3]
reading data: /eos/atlas/atlascerngroupdisk/det-hgtd/testbeam/February2024/Digitizer/run00437/Tek0007_ch1.wfm
 [*] Decoding done... takes [0.115s]
 [*] Ploting done... takes [0.000s]
 [*] Analyze done... takes [4.451s]
 [*] Fig Saving done... takes [0.000s]
reading data: /eos/atlas/atlascerngroupdisk/det-hgtd/testbeam/February2024/Digitizer/run00437/Tek0007_ch2.wfm
 [*] Decoding done... takes [0.154s]
 [*] Ploting done... takes [0.000s]
 [*] Analyze done... takes [4.284s]
 [*] Fig Saving done... takes [0.000s]
reading data: /eos/atlas/atlascerngroupdisk/det-hgtd/testbeam/February2024/Digitizer/run00437/Tek0007_ch3.wfm
 [*] Decoding done... takes [0.104s]
 [*] Ploting done... takes [0.000s]
 [*] Analyze done... takes [3.794s]
 [*] Fig Saving done... takes [0.000s]
 file: Tek0007_ch3.wfm 7 3
 file: Tek0008_ch1.wfm
 file: Tek0008_ch2.wfm
 file: Tek0008_ch3.wfm
[1 2 3]
reading data: /eos/atlas/atlascerngroupdisk/det-hgtd/testbeam/February2024/Digitizer/run00437/Tek0008_ch1.wfm
 [*] Decoding done... takes [0.027s]
 [*] Ploting done... takes [0.000s]
 [*] Analyze done... takes [0.000s]
 [*] Fig Saving done... takes [0.000s]
reading data: /eos/atlas/atlascerngroupdisk/det-hgtd/testbeam/February2024/Digitizer/run00437/Tek0008_ch2.wfm
 [*] Decoding done... takes [0.018s]
 [*] Ploting done... takes [0.000s]
 [*] Analyze done... takes [0.000s]
 [*] Fig Saving done... takes [0.000s]
reading data: /eos/atlas/atlascerngroupdisk/det-hgtd/testbeam/February2024/Digitizer/run00437/Tek0008_ch3.wfm
 [*] Decoding done... takes [0.031s]
 [*] Ploting done... takes [0.000s]
 [*] Analyze done... takes [0.000s]
 [*] Fig Saving done... takes [0.000s]
 file: Tek0008_ch3.wfm 8 3
 file: Tek0009_ch1.wfm
 file: Tek0009_ch2.wfm
 file: Tek0009_ch3.wfm
[1 2 3]
reading data: /eos/atlas/atlascerngroupdisk/det-hgtd/testbeam/February2024/Digitizer/run00437/Tek0009_ch1.wfm
 [*] Decoding done... takes [0.112s]
 [*] Ploting done... takes [0.000s]
 [*] Analyze done... takes [4.716s]
 [*] Fig Saving done... takes [0.000s]
reading data: /eos/atlas/atlascerngroupdisk/det-hgtd/testbeam/February2024/Digitizer/run00437/Tek0009_ch2.wfm
 [*] Decoding done... takes [0.153s]
 [*] Ploting done... takes [0.000s]
 [*] Analyze done... takes [4.487s]
 [*] Fig Saving done... takes [0.000s]
reading data: /eos/atlas/atlascerngroupdisk/det-hgtd/testbeam/February2024/Digitizer/run00437/Tek0009_ch3.wfm
 [*] Decoding done... takes [0.205s]
 [*] Ploting done... takes [0.000s]
 [*] Analyze done... takes [3.968s]
 [*] Fig Saving done... takes [0.000s]
 file: Tek0009_ch3.wfm 9 3
 file: Tek00010_ch1.wfm
 file: Tek00010_ch2.wfm
 file: Tek00010_ch3.wfm
[1 2 3]
reading data: /eos/atlas/atlascerngroupdisk/det-hgtd/testbeam/February2024/Digitizer/run00437/Tek00010_ch1.wfm
 [*] Decoding done... takes [0.107s]
 [*] Ploting done... takes [0.000s]
 [*] Analyze done... takes [4.395s]
 [*] Fig Saving done... takes [0.000s]
reading data: /eos/atlas/atlascerngroupdisk/det-hgtd/testbeam/February2024/Digitizer/run00437/Tek00010_ch2.wfm
 [*] Decoding done... takes [0.129s]
 [*] Ploting done... takes [0.000s]
 [*] Analyze done... takes [4.208s]
 [*] Fig Saving done... takes [0.000s]
reading data: /eos/atlas/atlascerngroupdisk/det-hgtd/testbeam/February2024/Digitizer/run00437/Tek00010_ch3.wfm
 [*] Decoding done... takes [0.111s]
 [*] Ploting done... takes [0.000s]
 [*] Analyze done... takes [3.735s]
 [*] Fig Saving done... takes [0.000s]
 file: Tek00010_ch3.wfm 10 3
 file: Tek00011_ch1.wfm
 file: Tek00011_ch2.wfm
 file: Tek00011_ch3.wfm
[1 2 3]
reading data: /eos/atlas/atlascerngroupdisk/det-hgtd/testbeam/February2024/Digitizer/run00437/Tek00011_ch1.wfm
 [*] Decoding done... takes [0.116s]
 [*] Ploting done... takes [0.000s]
 [*] Analyze done... takes [4.512s]
 [*] Fig Saving done... takes [0.000s]
reading data: /eos/atlas/atlascerngroupdisk/det-hgtd/testbeam/February2024/Digitizer/run00437/Tek00011_ch2.wfm
 [*] Decoding done... takes [0.080s]
 [*] Ploting done... takes [0.000s]
 [*] Analyze done... takes [4.085s]
 [*] Fig Saving done... takes [0.000s]
reading data: /eos/atlas/atlascerngroupdisk/det-hgtd/testbeam/February2024/Digitizer/run00437/Tek00011_ch3.wfm
 [*] Decoding done... takes [0.116s]
 [*] Ploting done... takes [0.000s]
 [*] Analyze done... takes [3.921s]
 [*] Fig Saving done... takes [0.000s]
 file: Tek00011_ch3.wfm 11 3
 file: Tek00012_ch1.wfm
 file: Tek00012_ch2.wfm
 file: Tek00012_ch3.wfm
[1 2 3]
reading data: /eos/atlas/atlascerngroupdisk/det-hgtd/testbeam/February2024/Digitizer/run00437/Tek00012_ch1.wfm
 [*] Decoding done... takes [0.125s]
 [*] Ploting done... takes [0.000s]
 [*] Analyze done... takes [4.320s]
 [*] Fig Saving done... takes [0.000s]
reading data: /eos/atlas/atlascerngroupdisk/det-hgtd/testbeam/February2024/Digitizer/run00437/Tek00012_ch2.wfm
 [*] Decoding done... takes [0.114s]
 [*] Ploting done... takes [0.000s]
 [*] Analyze done... takes [4.416s]
 [*] Fig Saving done... takes [0.000s]
reading data: /eos/atlas/atlascerngroupdisk/det-hgtd/testbeam/February2024/Digitizer/run00437/Tek00012_ch3.wfm
 [*] Decoding done... takes [0.277s]
 [*] Ploting done... takes [0.000s]
 [*] Analyze done... takes [4.230s]
 [*] Fig Saving done... takes [0.000s]
 file: Tek00012_ch3.wfm 12 3
 file: Tek00013_ch1.wfm
 file: Tek00013_ch2.wfm
 file: Tek00013_ch3.wfm
[1 2 3]
reading data: /eos/atlas/atlascerngroupdisk/det-hgtd/testbeam/February2024/Digitizer/run00437/Tek00013_ch1.wfm
 [*] Decoding done... takes [0.110s]
 [*] Ploting done... takes [0.000s]
 [*] Analyze done... takes [4.208s]
 [*] Fig Saving done... takes [0.000s]
reading data: /eos/atlas/atlascerngroupdisk/det-hgtd/testbeam/February2024/Digitizer/run00437/Tek00013_ch2.wfm
 [*] Decoding done... takes [0.160s]
 [*] Ploting done... takes [0.000s]
 [*] Analyze done... takes [4.356s]
 [*] Fig Saving done... takes [0.000s]
reading data: /eos/atlas/atlascerngroupdisk/det-hgtd/testbeam/February2024/Digitizer/run00437/Tek00013_ch3.wfm
 [*] Decoding done... takes [0.119s]
 [*] Ploting done... takes [0.000s]
 [*] Analyze done... takes [4.045s]
 [*] Fig Saving done... takes [0.000s]
 file: Tek00013_ch3.wfm 13 3
 file: Tek00014_ch1.wfm
 file: Tek00014_ch2.wfm
 file: Tek00014_ch3.wfm
[1 2 3]
reading data: /eos/atlas/atlascerngroupdisk/det-hgtd/testbeam/February2024/Digitizer/run00437/Tek00014_ch1.wfm
 [*] Decoding done... takes [0.141s]
 [*] Ploting done... takes [0.000s]
 [*] Analyze done... takes [4.422s]
 [*] Fig Saving done... takes [0.000s]
reading data: /eos/atlas/atlascerngroupdisk/det-hgtd/testbeam/February2024/Digitizer/run00437/Tek00014_ch2.wfm
 [*] Decoding done... takes [0.111s]
 [*] Ploting done... takes [0.000s]
 [*] Analyze done... takes [4.728s]
 [*] Fig Saving done... takes [0.000s]
reading data: /eos/atlas/atlascerngroupdisk/det-hgtd/testbeam/February2024/Digitizer/run00437/Tek00014_ch3.wfm
 [*] Decoding done... takes [0.118s]
 [*] Ploting done... takes [0.000s]
 [*] Analyze done... takes [4.045s]
 [*] Fig Saving done... takes [0.000s]
 file: Tek00014_ch3.wfm 14 3
 file: Tek00015_ch1.wfm
 file: Tek00015_ch2.wfm
 file: Tek00015_ch3.wfm
[1 2 3]
reading data: /eos/atlas/atlascerngroupdisk/det-hgtd/testbeam/February2024/Digitizer/run00437/Tek00015_ch1.wfm
 [*] Decoding done... takes [0.181s]
 [*] Ploting done... takes [0.000s]
 [*] Analyze done... takes [4.462s]
 [*] Fig Saving done... takes [0.000s]
reading data: /eos/atlas/atlascerngroupdisk/det-hgtd/testbeam/February2024/Digitizer/run00437/Tek00015_ch2.wfm
 [*] Decoding done... takes [0.155s]
 [*] Ploting done... takes [0.000s]
 [*] Analyze done... takes [4.551s]
 [*] Fig Saving done... takes [0.000s]
reading data: /eos/atlas/atlascerngroupdisk/det-hgtd/testbeam/February2024/Digitizer/run00437/Tek00015_ch3.wfm
 [*] Decoding done... takes [0.144s]
 [*] Ploting done... takes [0.000s]
 [*] Analyze done... takes [4.415s]
 [*] Fig Saving done... takes [0.000s]
 file: Tek00015_ch3.wfm 15 3
 file: Tek00016_ch1.wfm
 file: Tek00016_ch2.wfm
 file: Tek00016_ch3.wfm
[1 2 3]
reading data: /eos/atlas/atlascerngroupdisk/det-hgtd/testbeam/February2024/Digitizer/run00437/Tek00016_ch1.wfm
 [*] Decoding done... takes [0.137s]
 [*] Ploting done... takes [0.000s]
 [*] Analyze done... takes [4.537s]
 [*] Fig Saving done... takes [0.000s]
reading data: /eos/atlas/atlascerngroupdisk/det-hgtd/testbeam/February2024/Digitizer/run00437/Tek00016_ch2.wfm
 [*] Decoding done... takes [0.104s]
 [*] Ploting done... takes [0.000s]
 [*] Analyze done... takes [4.252s]
 [*] Fig Saving done... takes [0.000s]
reading data: /eos/atlas/atlascerngroupdisk/det-hgtd/testbeam/February2024/Digitizer/run00437/Tek00016_ch3.wfm
 [*] Decoding done... takes [0.101s]
 [*] Ploting done... takes [0.000s]
 [*] Analyze done... takes [4.111s]
 [*] Fig Saving done... takes [0.000s]
 file: Tek00016_ch3.wfm 16 3
 file: Tek00017_ch1.wfm
 file: Tek00017_ch2.wfm
 file: Tek00017_ch3.wfm
[1 2 3]
reading data: /eos/atlas/atlascerngroupdisk/det-hgtd/testbeam/February2024/Digitizer/run00437/Tek00017_ch1.wfm
 [*] Decoding done... takes [0.111s]
 [*] Ploting done... takes [0.000s]
 [*] Analyze done... takes [4.324s]
 [*] Fig Saving done... takes [0.000s]
reading data: /eos/atlas/atlascerngroupdisk/det-hgtd/testbeam/February2024/Digitizer/run00437/Tek00017_ch2.wfm
 [*] Decoding done... takes [0.158s]
 [*] Ploting done... takes [0.000s]
 [*] Analyze done... takes [4.236s]
 [*] Fig Saving done... takes [0.000s]
reading data: /eos/atlas/atlascerngroupdisk/det-hgtd/testbeam/February2024/Digitizer/run00437/Tek00017_ch3.wfm
 [*] Decoding done... takes [0.126s]
 [*] Ploting done... takes [0.000s]
 [*] Analyze done... takes [3.638s]
 [*] Fig Saving done... takes [0.000s]
 file: Tek00017_ch3.wfm 17 3
 file: Tek00018_ch1.wfm
 file: Tek00018_ch2.wfm
 file: Tek00018_ch3.wfm
[1 2 3]
reading data: /eos/atlas/atlascerngroupdisk/det-hgtd/testbeam/February2024/Digitizer/run00437/Tek00018_ch1.wfm
 [*] Decoding done... takes [0.095s]
 [*] Ploting done... takes [0.000s]
 [*] Analyze done... takes [4.364s]
 [*] Fig Saving done... takes [0.000s]
reading data: /eos/atlas/atlascerngroupdisk/det-hgtd/testbeam/February2024/Digitizer/run00437/Tek00018_ch2.wfm
 [*] Decoding done... takes [0.107s]
 [*] Ploting done... takes [0.000s]
 [*] Analyze done... takes [4.072s]
 [*] Fig Saving done... takes [0.000s]
reading data: /eos/atlas/atlascerngroupdisk/det-hgtd/testbeam/February2024/Digitizer/run00437/Tek00018_ch3.wfm
 [*] Decoding done... takes [0.112s]
 [*] Ploting done... takes [0.000s]
 [*] Analyze done... takes [4.151s]
 [*] Fig Saving done... takes [0.000s]
 file: Tek00018_ch3.wfm 18 3
 file: Tek00019_ch1.wfm
 file: Tek00019_ch2.wfm
 file: Tek00019_ch3.wfm
[1 2 3]
reading data: /eos/atlas/atlascerngroupdisk/det-hgtd/testbeam/February2024/Digitizer/run00437/Tek00019_ch1.wfm
 [*] Decoding done... takes [0.100s]
 [*] Ploting done... takes [0.000s]
 [*] Analyze done... takes [4.019s]
 [*] Fig Saving done... takes [0.000s]
reading data: /eos/atlas/atlascerngroupdisk/det-hgtd/testbeam/February2024/Digitizer/run00437/Tek00019_ch2.wfm
 [*] Decoding done... takes [0.141s]
 [*] Ploting done... takes [0.000s]
 [*] Analyze done... takes [4.462s]
 [*] Fig Saving done... takes [0.000s]
reading data: /eos/atlas/atlascerngroupdisk/det-hgtd/testbeam/February2024/Digitizer/run00437/Tek00019_ch3.wfm
 [*] Decoding done... takes [0.105s]
 [*] Ploting done... takes [0.000s]
 [*] Analyze done... takes [3.821s]
 [*] Fig Saving done... takes [0.000s]
 file: Tek00019_ch3.wfm 19 3
 file: Tek00020_ch1.wfm
 file: Tek00020_ch2.wfm
 file: Tek00020_ch3.wfm
[1 2 3]
reading data: /eos/atlas/atlascerngroupdisk/det-hgtd/testbeam/February2024/Digitizer/run00437/Tek00020_ch1.wfm
 [*] Decoding done... takes [0.118s]
 [*] Ploting done... takes [0.000s]
 [*] Analyze done... takes [4.670s]
 [*] Fig Saving done... takes [0.000s]
reading data: /eos/atlas/atlascerngroupdisk/det-hgtd/testbeam/February2024/Digitizer/run00437/Tek00020_ch2.wfm
 [*] Decoding done... takes [0.103s]
 [*] Ploting done... takes [0.000s]
 [*] Analyze done... takes [4.660s]
 [*] Fig Saving done... takes [0.000s]
reading data: /eos/atlas/atlascerngroupdisk/det-hgtd/testbeam/February2024/Digitizer/run00437/Tek00020_ch3.wfm
 [*] Decoding done... takes [0.200s]
 [*] Ploting done... takes [0.000s]
 [*] Analyze done... takes [4.002s]
 [*] Fig Saving done... takes [0.000s]
 file: Tek00020_ch3.wfm 20 3
 file: Tek00021_ch1.wfm
 file: Tek00021_ch2.wfm
 file: Tek00021_ch3.wfm
[1 2 3]
reading data: /eos/atlas/atlascerngroupdisk/det-hgtd/testbeam/February2024/Digitizer/run00437/Tek00021_ch1.wfm
 [*] Decoding done... takes [0.126s]
 [*] Ploting done... takes [0.000s]
 [*] Analyze done... takes [4.605s]
 [*] Fig Saving done... takes [0.000s]
reading data: /eos/atlas/atlascerngroupdisk/det-hgtd/testbeam/February2024/Digitizer/run00437/Tek00021_ch2.wfm
 [*] Decoding done... takes [0.127s]
 [*] Ploting done... takes [0.001s]
 [*] Analyze done... takes [4.454s]
 [*] Fig Saving done... takes [0.000s]
reading data: /eos/atlas/atlascerngroupdisk/det-hgtd/testbeam/February2024/Digitizer/run00437/Tek00021_ch3.wfm
 [*] Decoding done... takes [0.161s]
 [*] Ploting done... takes [0.000s]
 [*] Analyze done... takes [3.862s]
 [*] Fig Saving done... takes [0.000s]
 file: Tek00021_ch3.wfm 21 3
 file: Tek00022_ch1.wfm
 file: Tek00022_ch2.wfm
 file: Tek00022_ch3.wfm
[1 2 3]
reading data: /eos/atlas/atlascerngroupdisk/det-hgtd/testbeam/February2024/Digitizer/run00437/Tek00022_ch1.wfm
 [*] Decoding done... takes [0.090s]
 [*] Ploting done... takes [0.000s]
 [*] Analyze done... takes [4.513s]
 [*] Fig Saving done... takes [0.000s]
reading data: /eos/atlas/atlascerngroupdisk/det-hgtd/testbeam/February2024/Digitizer/run00437/Tek00022_ch2.wfm
 [*] Decoding done... takes [0.116s]
 [*] Ploting done... takes [0.000s]
 [*] Analyze done... takes [4.015s]
 [*] Fig Saving done... takes [0.000s]
reading data: /eos/atlas/atlascerngroupdisk/det-hgtd/testbeam/February2024/Digitizer/run00437/Tek00022_ch3.wfm
 [*] Decoding done... takes [0.093s]
 [*] Ploting done... takes [0.000s]
 [*] Analyze done... takes [3.682s]
 [*] Fig Saving done... takes [0.000s]
 file: Tek00022_ch3.wfm 22 3
 file: Tek00023_ch1.wfm
 file: Tek00023_ch2.wfm
 file: Tek00023_ch3.wfm
[1 2 3]
reading data: /eos/atlas/atlascerngroupdisk/det-hgtd/testbeam/February2024/Digitizer/run00437/Tek00023_ch1.wfm
 [*] Decoding done... takes [0.104s]
 [*] Ploting done... takes [0.000s]
 [*] Analyze done... takes [4.171s]
 [*] Fig Saving done... takes [0.000s]
reading data: /eos/atlas/atlascerngroupdisk/det-hgtd/testbeam/February2024/Digitizer/run00437/Tek00023_ch2.wfm
 [*] Decoding done... takes [0.113s]
 [*] Ploting done... takes [0.000s]
 [*] Analyze done... takes [4.130s]
 [*] Fig Saving done... takes [0.000s]
reading data: /eos/atlas/atlascerngroupdisk/det-hgtd/testbeam/February2024/Digitizer/run00437/Tek00023_ch3.wfm
 [*] Decoding done... takes [0.086s]
 [*] Ploting done... takes [0.000s]
 [*] Analyze done... takes [3.645s]
 [*] Fig Saving done... takes [0.000s]
 file: Tek00023_ch3.wfm 23 3
 file: Tek00024_ch1.wfm
 file: Tek00024_ch2.wfm
 file: Tek00024_ch3.wfm
[1 2 3]
reading data: /eos/atlas/atlascerngroupdisk/det-hgtd/testbeam/February2024/Digitizer/run00437/Tek00024_ch1.wfm
 [*] Decoding done... takes [0.087s]
 [*] Ploting done... takes [0.000s]
 [*] Analyze done... takes [4.102s]
 [*] Fig Saving done... takes [0.000s]
reading data: /eos/atlas/atlascerngroupdisk/det-hgtd/testbeam/February2024/Digitizer/run00437/Tek00024_ch2.wfm
 [*] Decoding done... takes [0.106s]
 [*] Ploting done... takes [0.000s]
 [*] Analyze done... takes [4.055s]
 [*] Fig Saving done... takes [0.000s]
reading data: /eos/atlas/atlascerngroupdisk/det-hgtd/testbeam/February2024/Digitizer/run00437/Tek00024_ch3.wfm
 [*] Decoding done... takes [0.141s]
 [*] Ploting done... takes [0.000s]
 [*] Analyze done... takes [3.676s]
 [*] Fig Saving done... takes [0.000s]
 file: Tek00024_ch3.wfm 24 3
 file: Tek00025_ch1.wfm
 file: Tek00025_ch2.wfm
 file: Tek00025_ch3.wfm
[1 2 3]
reading data: /eos/atlas/atlascerngroupdisk/det-hgtd/testbeam/February2024/Digitizer/run00437/Tek00025_ch1.wfm
 [*] Decoding done... takes [0.084s]
 [*] Ploting done... takes [0.000s]
 [*] Analyze done... takes [4.134s]
 [*] Fig Saving done... takes [0.000s]
reading data: /eos/atlas/atlascerngroupdisk/det-hgtd/testbeam/February2024/Digitizer/run00437/Tek00025_ch2.wfm
 [*] Decoding done... takes [0.122s]
 [*] Ploting done... takes [0.000s]
 [*] Analyze done... takes [4.624s]
 [*] Fig Saving done... takes [0.000s]
reading data: /eos/atlas/atlascerngroupdisk/det-hgtd/testbeam/February2024/Digitizer/run00437/Tek00025_ch3.wfm
 [*] Decoding done... takes [0.166s]
 [*] Ploting done... takes [0.000s]
 [*] Analyze done... takes [4.414s]
 [*] Fig Saving done... takes [0.000s]
 file: Tek00025_ch3.wfm 25 3
 file: Tek00026_ch1.wfm
 file: Tek00026_ch2.wfm
 file: Tek00026_ch3.wfm
[1 2 3]
reading data: /eos/atlas/atlascerngroupdisk/det-hgtd/testbeam/February2024/Digitizer/run00437/Tek00026_ch1.wfm
 [*] Decoding done... takes [0.366s]
 [*] Ploting done... takes [0.000s]
 [*] Analyze done... takes [4.011s]
 [*] Fig Saving done... takes [0.000s]
reading data: /eos/atlas/atlascerngroupdisk/det-hgtd/testbeam/February2024/Digitizer/run00437/Tek00026_ch2.wfm
 [*] Decoding done... takes [0.401s]
 [*] Ploting done... takes [0.000s]
 [*] Analyze done... takes [3.871s]
 [*] Fig Saving done... takes [0.000s]
reading data: /eos/atlas/atlascerngroupdisk/det-hgtd/testbeam/February2024/Digitizer/run00437/Tek00026_ch3.wfm
 [*] Decoding done... takes [0.111s]
 [*] Ploting done... takes [0.000s]
 [*] Analyze done... takes [3.562s]
 [*] Fig Saving done... takes [0.000s]
 file: Tek00026_ch3.wfm 26 3
 file: Tek00027_ch1.wfm
 file: Tek00027_ch2.wfm
 file: Tek00027_ch3.wfm
[1 2 3]
reading data: /eos/atlas/atlascerngroupdisk/det-hgtd/testbeam/February2024/Digitizer/run00437/Tek00027_ch1.wfm
 [*] Decoding done... takes [0.253s]
 [*] Ploting done... takes [0.000s]
 [*] Analyze done... takes [4.519s]
 [*] Fig Saving done... takes [0.000s]
reading data: /eos/atlas/atlascerngroupdisk/det-hgtd/testbeam/February2024/Digitizer/run00437/Tek00027_ch2.wfm
 [*] Decoding done... takes [0.088s]
 [*] Ploting done... takes [0.000s]
 [*] Analyze done... takes [4.119s]
 [*] Fig Saving done... takes [0.000s]
reading data: /eos/atlas/atlascerngroupdisk/det-hgtd/testbeam/February2024/Digitizer/run00437/Tek00027_ch3.wfm
 [*] Decoding done... takes [0.121s]
 [*] Ploting done... takes [0.000s]
 [*] Analyze done... takes [3.979s]
 [*] Fig Saving done... takes [0.000s]
 file: Tek00027_ch3.wfm 27 3
 file: Tek00028_ch1.wfm
 file: Tek00028_ch2.wfm
 file: Tek00028_ch3.wfm
[1 2 3]
reading data: /eos/atlas/atlascerngroupdisk/det-hgtd/testbeam/February2024/Digitizer/run00437/Tek00028_ch1.wfm
 [*] Decoding done... takes [0.150s]
 [*] Ploting done... takes [0.000s]
 [*] Analyze done... takes [4.715s]
 [*] Fig Saving done... takes [0.000s]
reading data: /eos/atlas/atlascerngroupdisk/det-hgtd/testbeam/February2024/Digitizer/run00437/Tek00028_ch2.wfm
 [*] Decoding done... takes [0.140s]
 [*] Ploting done... takes [0.000s]
 [*] Analyze done... takes [4.579s]
 [*] Fig Saving done... takes [0.000s]
reading data: /eos/atlas/atlascerngroupdisk/det-hgtd/testbeam/February2024/Digitizer/run00437/Tek00028_ch3.wfm
 [*] Decoding done... takes [0.126s]
 [*] Ploting done... takes [0.000s]
 [*] Analyze done... takes [4.210s]
 [*] Fig Saving done... takes [0.000s]
 file: Tek00028_ch3.wfm 28 3
 file: Tek00029_ch1.wfm
 file: Tek00029_ch2.wfm
 file: Tek00029_ch3.wfm
[1 2 3]
reading data: /eos/atlas/atlascerngroupdisk/det-hgtd/testbeam/February2024/Digitizer/run00437/Tek00029_ch1.wfm
 [*] Decoding done... takes [0.099s]
 [*] Ploting done... takes [0.000s]
 [*] Analyze done... takes [4.520s]
 [*] Fig Saving done... takes [0.000s]
reading data: /eos/atlas/atlascerngroupdisk/det-hgtd/testbeam/February2024/Digitizer/run00437/Tek00029_ch2.wfm
 [*] Decoding done... takes [0.128s]
 [*] Ploting done... takes [0.000s]
 [*] Analyze done... takes [4.500s]
 [*] Fig Saving done... takes [0.000s]
reading data: /eos/atlas/atlascerngroupdisk/det-hgtd/testbeam/February2024/Digitizer/run00437/Tek00029_ch3.wfm
 [*] Decoding done... takes [0.167s]
 [*] Ploting done... takes [0.000s]
 [*] Analyze done... takes [4.333s]
 [*] Fig Saving done... takes [0.000s]
 file: Tek00029_ch3.wfm 29 3
 file: Tek00030_ch1.wfm
 file: Tek00030_ch2.wfm
 file: Tek00030_ch3.wfm
[1 2 3]
reading data: /eos/atlas/atlascerngroupdisk/det-hgtd/testbeam/February2024/Digitizer/run00437/Tek00030_ch1.wfm
 [*] Decoding done... takes [0.113s]
 [*] Ploting done... takes [0.000s]
 [*] Analyze done... takes [5.317s]
 [*] Fig Saving done... takes [0.000s]
reading data: /eos/atlas/atlascerngroupdisk/det-hgtd/testbeam/February2024/Digitizer/run00437/Tek00030_ch2.wfm
 [*] Decoding done... takes [0.149s]
 [*] Ploting done... takes [0.000s]
 [*] Analyze done... takes [5.178s]
 [*] Fig Saving done... takes [0.000s]
reading data: /eos/atlas/atlascerngroupdisk/det-hgtd/testbeam/February2024/Digitizer/run00437/Tek00030_ch3.wfm
 [*] Decoding done... takes [0.165s]
 [*] Ploting done... takes [0.000s]
 [*] Analyze done... takes [4.388s]
 [*] Fig Saving done... takes [0.000s]
 file: Tek00030_ch3.wfm 30 3
 file: Tek00031_ch1.wfm
 file: Tek00031_ch2.wfm
 file: Tek00031_ch3.wfm
[1 2 3]
reading data: /eos/atlas/atlascerngroupdisk/det-hgtd/testbeam/February2024/Digitizer/run00437/Tek00031_ch1.wfm
 [*] Decoding done... takes [0.329s]
 [*] Ploting done... takes [0.000s]
 [*] Analyze done... takes [4.731s]
 [*] Fig Saving done... takes [0.000s]
reading data: /eos/atlas/atlascerngroupdisk/det-hgtd/testbeam/February2024/Digitizer/run00437/Tek00031_ch2.wfm
 [*] Decoding done... takes [0.283s]
 [*] Ploting done... takes [0.000s]
 [*] Analyze done... takes [4.893s]
 [*] Fig Saving done... takes [0.000s]
reading data: /eos/atlas/atlascerngroupdisk/det-hgtd/testbeam/February2024/Digitizer/run00437/Tek00031_ch3.wfm
 [*] Decoding done... takes [0.312s]
 [*] Ploting done... takes [0.000s]
 [*] Analyze done... takes [4.141s]
 [*] Fig Saving done... takes [0.000s]
 file: Tek00031_ch3.wfm 31 3
 file: Tek00032_ch1.wfm
 file: Tek00032_ch2.wfm
 file: Tek00032_ch3.wfm
[1 2 3]
reading data: /eos/atlas/atlascerngroupdisk/det-hgtd/testbeam/February2024/Digitizer/run00437/Tek00032_ch1.wfm
 [*] Decoding done... takes [0.235s]
 [*] Ploting done... takes [0.000s]
 [*] Analyze done... takes [5.231s]
 [*] Fig Saving done... takes [0.000s]
reading data: /eos/atlas/atlascerngroupdisk/det-hgtd/testbeam/February2024/Digitizer/run00437/Tek00032_ch2.wfm
 [*] Decoding done... takes [0.328s]
 [*] Ploting done... takes [0.000s]
 [*] Analyze done... takes [4.698s]
 [*] Fig Saving done... takes [0.000s]
reading data: /eos/atlas/atlascerngroupdisk/det-hgtd/testbeam/February2024/Digitizer/run00437/Tek00032_ch3.wfm
 [*] Decoding done... takes [0.292s]
 [*] Ploting done... takes [0.000s]
 [*] Analyze done... takes [4.413s]
 [*] Fig Saving done... takes [0.000s]
 file: Tek00032_ch3.wfm 32 3
 file: Tek00033_ch1.wfm
 file: Tek00033_ch2.wfm
 file: Tek00033_ch3.wfm
[1 2 3]
reading data: /eos/atlas/atlascerngroupdisk/det-hgtd/testbeam/February2024/Digitizer/run00437/Tek00033_ch1.wfm
 [*] Decoding done... takes [0.079s]
 [*] Ploting done... takes [0.000s]
 [*] Analyze done... takes [1.476s]
 [*] Fig Saving done... takes [0.000s]
reading data: /eos/atlas/atlascerngroupdisk/det-hgtd/testbeam/February2024/Digitizer/run00437/Tek00033_ch2.wfm
 [*] Decoding done... takes [0.052s]
 [*] Ploting done... takes [0.000s]
 [*] Analyze done... takes [1.384s]
 [*] Fig Saving done... takes [0.000s]
reading data: /eos/atlas/atlascerngroupdisk/det-hgtd/testbeam/February2024/Digitizer/run00437/Tek00033_ch3.wfm
 [*] Decoding done... takes [0.057s]
 [*] Ploting done... takes [0.000s]
 [*] Analyze done... takes [1.270s]
 [*] Fig Saving done... takes [0.000s]
 file: Tek00033_ch3.wfm 33 3
