---------------------------------------------
Setting special contour style...
---------------------------------------------
---------------------------------------------
Loading ATLAS style Macros ...
---------------------------------------------
0
400000
800000
1760000
2000000
2220000
3960000
4980000
5440000
5840000
Finished writing data to /eos/atlas/atlascerngroupdisk/det-hgtd/testbeam/February2024/Alvin/ntuples/Alvin-February2024-00444.root
