---------------------------------------------
Setting special contour style...
---------------------------------------------
---------------------------------------------
Loading ATLAS style Macros ...
---------------------------------------------
checking input dir.....
 --- /eos/atlas/atlascerngroupdisk/det-hgtd/testbeam/February2024/Digitizer/run00477
/eos/atlas/atlascerngroupdisk/det-hgtd/testbeam/February2024/Digitizer

 --- These channels are present in 477: [1 2 3] --- 
 file: Tek0000_ch1.wfm
 file: Tek0000_ch2.wfm
 file: Tek0000_ch3.wfm
[1 2 3]
reading data: /eos/atlas/atlascerngroupdisk/det-hgtd/testbeam/February2024/Digitizer/run00477/Tek0000_ch1.wfm
 [*] Decoding done... takes [0.117s]
 [*] Ploting done... takes [0.000s]
 [*] Analyze done... takes [2.809s]
 [*] Fig Saving done... takes [0.000s]
reading data: /eos/atlas/atlascerngroupdisk/det-hgtd/testbeam/February2024/Digitizer/run00477/Tek0000_ch2.wfm
 [*] Decoding done... takes [0.124s]
 [*] Ploting done... takes [0.000s]
 [*] Analyze done... takes [2.394s]
 [*] Fig Saving done... takes [0.000s]
reading data: /eos/atlas/atlascerngroupdisk/det-hgtd/testbeam/February2024/Digitizer/run00477/Tek0000_ch3.wfm
 [*] Decoding done... takes [0.126s]
 [*] Ploting done... takes [0.000s]
 [*] Analyze done... takes [1.973s]
 [*] Fig Saving done... takes [0.000s]
 file: Tek0000_ch3.wfm 0 3
 file: Tek0001_ch1.wfm
 file: Tek0001_ch2.wfm
 file: Tek0001_ch3.wfm
[1 2 3]
reading data: /eos/atlas/atlascerngroupdisk/det-hgtd/testbeam/February2024/Digitizer/run00477/Tek0001_ch1.wfm
 [*] Decoding done... takes [0.120s]
 [*] Ploting done... takes [0.000s]
 [*] Analyze done... takes [2.615s]
 [*] Fig Saving done... takes [0.000s]
reading data: /eos/atlas/atlascerngroupdisk/det-hgtd/testbeam/February2024/Digitizer/run00477/Tek0001_ch2.wfm
 [*] Decoding done... takes [0.129s]
 [*] Ploting done... takes [0.000s]
 [*] Analyze done... takes [2.639s]
 [*] Fig Saving done... takes [0.000s]
reading data: /eos/atlas/atlascerngroupdisk/det-hgtd/testbeam/February2024/Digitizer/run00477/Tek0001_ch3.wfm
 [*] Decoding done... takes [0.491s]
 [*] Ploting done... takes [0.000s]
 [*] Analyze done... takes [1.970s]
 [*] Fig Saving done... takes [0.000s]
 file: Tek0001_ch3.wfm 1 3
 file: Tek0002_ch1.wfm
 file: Tek0002_ch2.wfm
 file: Tek0002_ch3.wfm
[1 2 3]
reading data: /eos/atlas/atlascerngroupdisk/det-hgtd/testbeam/February2024/Digitizer/run00477/Tek0002_ch1.wfm
 [*] Decoding done... takes [0.204s]
 [*] Ploting done... takes [0.000s]
 [*] Analyze done... takes [2.640s]
 [*] Fig Saving done... takes [0.000s]
reading data: /eos/atlas/atlascerngroupdisk/det-hgtd/testbeam/February2024/Digitizer/run00477/Tek0002_ch2.wfm
 [*] Decoding done... takes [0.123s]
 [*] Ploting done... takes [0.000s]
 [*] Analyze done... takes [2.596s]
 [*] Fig Saving done... takes [0.000s]
reading data: /eos/atlas/atlascerngroupdisk/det-hgtd/testbeam/February2024/Digitizer/run00477/Tek0002_ch3.wfm
 [*] Decoding done... takes [0.115s]
 [*] Ploting done... takes [0.000s]
 [*] Analyze done... takes [1.950s]
 [*] Fig Saving done... takes [0.000s]
 file: Tek0002_ch3.wfm 2 3
 file: Tek0003_ch1.wfm
 file: Tek0003_ch2.wfm
 file: Tek0003_ch3.wfm
[1 2 3]
reading data: /eos/atlas/atlascerngroupdisk/det-hgtd/testbeam/February2024/Digitizer/run00477/Tek0003_ch1.wfm
 [*] Decoding done... takes [0.330s]
 [*] Ploting done... takes [0.000s]
 [*] Analyze done... takes [2.646s]
 [*] Fig Saving done... takes [0.000s]
reading data: /eos/atlas/atlascerngroupdisk/det-hgtd/testbeam/February2024/Digitizer/run00477/Tek0003_ch2.wfm
 [*] Decoding done... takes [0.191s]
 [*] Ploting done... takes [0.000s]
 [*] Analyze done... takes [2.519s]
 [*] Fig Saving done... takes [0.000s]
reading data: /eos/atlas/atlascerngroupdisk/det-hgtd/testbeam/February2024/Digitizer/run00477/Tek0003_ch3.wfm
 [*] Decoding done... takes [0.258s]
 [*] Ploting done... takes [0.000s]
 [*] Analyze done... takes [2.145s]
 [*] Fig Saving done... takes [0.000s]
 file: Tek0003_ch3.wfm 3 3
 file: Tek0004_ch1.wfm
 file: Tek0004_ch2.wfm
 file: Tek0004_ch3.wfm
[1 2 3]
reading data: /eos/atlas/atlascerngroupdisk/det-hgtd/testbeam/February2024/Digitizer/run00477/Tek0004_ch1.wfm
 [*] Decoding done... takes [0.231s]
 [*] Ploting done... takes [0.000s]
 [*] Analyze done... takes [2.658s]
 [*] Fig Saving done... takes [0.000s]
reading data: /eos/atlas/atlascerngroupdisk/det-hgtd/testbeam/February2024/Digitizer/run00477/Tek0004_ch2.wfm
 [*] Decoding done... takes [0.138s]
 [*] Ploting done... takes [0.000s]
 [*] Analyze done... takes [2.473s]
 [*] Fig Saving done... takes [0.000s]
reading data: /eos/atlas/atlascerngroupdisk/det-hgtd/testbeam/February2024/Digitizer/run00477/Tek0004_ch3.wfm
 [*] Decoding done... takes [0.145s]
 [*] Ploting done... takes [0.000s]
 [*] Analyze done... takes [1.975s]
 [*] Fig Saving done... takes [0.000s]
 file: Tek0004_ch3.wfm 4 3
 file: Tek0005_ch1.wfm
 file: Tek0005_ch2.wfm
 file: Tek0005_ch3.wfm
[1 2 3]
reading data: /eos/atlas/atlascerngroupdisk/det-hgtd/testbeam/February2024/Digitizer/run00477/Tek0005_ch1.wfm
 [*] Decoding done... takes [0.146s]
 [*] Ploting done... takes [0.000s]
 [*] Analyze done... takes [2.616s]
 [*] Fig Saving done... takes [0.000s]
reading data: /eos/atlas/atlascerngroupdisk/det-hgtd/testbeam/February2024/Digitizer/run00477/Tek0005_ch2.wfm
 [*] Decoding done... takes [0.228s]
 [*] Ploting done... takes [0.000s]
 [*] Analyze done... takes [2.261s]
 [*] Fig Saving done... takes [0.000s]
reading data: /eos/atlas/atlascerngroupdisk/det-hgtd/testbeam/February2024/Digitizer/run00477/Tek0005_ch3.wfm
 [*] Decoding done... takes [0.106s]
 [*] Ploting done... takes [0.000s]
 [*] Analyze done... takes [1.830s]
 [*] Fig Saving done... takes [0.000s]
 file: Tek0005_ch3.wfm 5 3
 file: Tek0006_ch1.wfm
 file: Tek0006_ch2.wfm
 file: Tek0006_ch3.wfm
[1 2 3]
reading data: /eos/atlas/atlascerngroupdisk/det-hgtd/testbeam/February2024/Digitizer/run00477/Tek0006_ch1.wfm
 [*] Decoding done... takes [0.176s]
 [*] Ploting done... takes [0.000s]
 [*] Analyze done... takes [2.840s]
 [*] Fig Saving done... takes [0.000s]
reading data: /eos/atlas/atlascerngroupdisk/det-hgtd/testbeam/February2024/Digitizer/run00477/Tek0006_ch2.wfm
 [*] Decoding done... takes [0.145s]
 [*] Ploting done... takes [0.000s]
 [*] Analyze done... takes [2.498s]
 [*] Fig Saving done... takes [0.000s]
reading data: /eos/atlas/atlascerngroupdisk/det-hgtd/testbeam/February2024/Digitizer/run00477/Tek0006_ch3.wfm
 [*] Decoding done... takes [0.142s]
 [*] Ploting done... takes [0.000s]
 [*] Analyze done... takes [2.061s]
 [*] Fig Saving done... takes [0.000s]
 file: Tek0006_ch3.wfm 6 3
 file: Tek0007_ch1.wfm
 file: Tek0007_ch2.wfm
 file: Tek0007_ch3.wfm
[1 2 3]
reading data: /eos/atlas/atlascerngroupdisk/det-hgtd/testbeam/February2024/Digitizer/run00477/Tek0007_ch1.wfm
 [*] Decoding done... takes [0.348s]
 [*] Ploting done... takes [0.000s]
 [*] Analyze done... takes [2.518s]
 [*] Fig Saving done... takes [0.000s]
reading data: /eos/atlas/atlascerngroupdisk/det-hgtd/testbeam/February2024/Digitizer/run00477/Tek0007_ch2.wfm
 [*] Decoding done... takes [0.147s]
 [*] Ploting done... takes [0.000s]
 [*] Analyze done... takes [2.512s]
 [*] Fig Saving done... takes [0.000s]
reading data: /eos/atlas/atlascerngroupdisk/det-hgtd/testbeam/February2024/Digitizer/run00477/Tek0007_ch3.wfm
 [*] Decoding done... takes [0.152s]
 [*] Ploting done... takes [0.000s]
 [*] Analyze done... takes [2.039s]
 [*] Fig Saving done... takes [0.000s]
 file: Tek0007_ch3.wfm 7 3
 file: Tek0008_ch1.wfm
 file: Tek0008_ch2.wfm
 file: Tek0008_ch3.wfm
[1 2 3]
reading data: /eos/atlas/atlascerngroupdisk/det-hgtd/testbeam/February2024/Digitizer/run00477/Tek0008_ch1.wfm
 [*] Decoding done... takes [0.158s]
 [*] Ploting done... takes [0.000s]
 [*] Analyze done... takes [2.644s]
 [*] Fig Saving done... takes [0.000s]
reading data: /eos/atlas/atlascerngroupdisk/det-hgtd/testbeam/February2024/Digitizer/run00477/Tek0008_ch2.wfm
 [*] Decoding done... takes [0.104s]
 [*] Ploting done... takes [0.000s]
 [*] Analyze done... takes [2.514s]
 [*] Fig Saving done... takes [0.000s]
reading data: /eos/atlas/atlascerngroupdisk/det-hgtd/testbeam/February2024/Digitizer/run00477/Tek0008_ch3.wfm
 [*] Decoding done... takes [0.156s]
 [*] Ploting done... takes [0.000s]
 [*] Analyze done... takes [2.071s]
 [*] Fig Saving done... takes [0.000s]
 file: Tek0008_ch3.wfm 8 3
 file: Tek0009_ch1.wfm
 file: Tek0009_ch2.wfm
 file: Tek0009_ch3.wfm
[1 2 3]
reading data: /eos/atlas/atlascerngroupdisk/det-hgtd/testbeam/February2024/Digitizer/run00477/Tek0009_ch1.wfm
 [*] Decoding done... takes [0.268s]
 [*] Ploting done... takes [0.000s]
 [*] Analyze done... takes [2.583s]
 [*] Fig Saving done... takes [0.000s]
reading data: /eos/atlas/atlascerngroupdisk/det-hgtd/testbeam/February2024/Digitizer/run00477/Tek0009_ch2.wfm
 [*] Decoding done... takes [0.187s]
 [*] Ploting done... takes [0.000s]
 [*] Analyze done... takes [2.427s]
 [*] Fig Saving done... takes [0.000s]
reading data: /eos/atlas/atlascerngroupdisk/det-hgtd/testbeam/February2024/Digitizer/run00477/Tek0009_ch3.wfm
 [*] Decoding done... takes [0.131s]
 [*] Ploting done... takes [0.000s]
 [*] Analyze done... takes [1.931s]
 [*] Fig Saving done... takes [0.000s]
 file: Tek0009_ch3.wfm 9 3
 file: Tek00010_ch1.wfm
 file: Tek00010_ch2.wfm
 file: Tek00010_ch3.wfm
[1 2 3]
reading data: /eos/atlas/atlascerngroupdisk/det-hgtd/testbeam/February2024/Digitizer/run00477/Tek00010_ch1.wfm
 [*] Decoding done... takes [0.248s]
 [*] Ploting done... takes [0.000s]
 [*] Analyze done... takes [2.549s]
 [*] Fig Saving done... takes [0.000s]
reading data: /eos/atlas/atlascerngroupdisk/det-hgtd/testbeam/February2024/Digitizer/run00477/Tek00010_ch2.wfm
 [*] Decoding done... takes [0.200s]
 [*] Ploting done... takes [0.000s]
 [*] Analyze done... takes [2.438s]
 [*] Fig Saving done... takes [0.000s]
reading data: /eos/atlas/atlascerngroupdisk/det-hgtd/testbeam/February2024/Digitizer/run00477/Tek00010_ch3.wfm
 [*] Decoding done... takes [0.130s]
 [*] Ploting done... takes [0.000s]
 [*] Analyze done... takes [1.923s]
 [*] Fig Saving done... takes [0.000s]
 file: Tek00010_ch3.wfm 10 3
 file: Tek00011_ch1.wfm
 file: Tek00011_ch2.wfm
 file: Tek00011_ch3.wfm
[1 2 3]
reading data: /eos/atlas/atlascerngroupdisk/det-hgtd/testbeam/February2024/Digitizer/run00477/Tek00011_ch1.wfm
 [*] Decoding done... takes [0.169s]
 [*] Ploting done... takes [0.000s]
 [*] Analyze done... takes [2.664s]
 [*] Fig Saving done... takes [0.000s]
reading data: /eos/atlas/atlascerngroupdisk/det-hgtd/testbeam/February2024/Digitizer/run00477/Tek00011_ch2.wfm
 [*] Decoding done... takes [0.357s]
 [*] Ploting done... takes [0.000s]
 [*] Analyze done... takes [2.669s]
 [*] Fig Saving done... takes [0.000s]
reading data: /eos/atlas/atlascerngroupdisk/det-hgtd/testbeam/February2024/Digitizer/run00477/Tek00011_ch3.wfm
 [*] Decoding done... takes [0.164s]
 [*] Ploting done... takes [0.000s]
 [*] Analyze done... takes [2.148s]
 [*] Fig Saving done... takes [0.000s]
 file: Tek00011_ch3.wfm 11 3
 file: Tek00012_ch1.wfm
 file: Tek00012_ch2.wfm
 file: Tek00012_ch3.wfm
[1 2 3]
reading data: /eos/atlas/atlascerngroupdisk/det-hgtd/testbeam/February2024/Digitizer/run00477/Tek00012_ch1.wfm
 [*] Decoding done... takes [0.128s]
 [*] Ploting done... takes [0.000s]
 [*] Analyze done... takes [2.698s]
 [*] Fig Saving done... takes [0.000s]
reading data: /eos/atlas/atlascerngroupdisk/det-hgtd/testbeam/February2024/Digitizer/run00477/Tek00012_ch2.wfm
 [*] Decoding done... takes [0.224s]
 [*] Ploting done... takes [0.000s]
 [*] Analyze done... takes [2.625s]
 [*] Fig Saving done... takes [0.000s]
reading data: /eos/atlas/atlascerngroupdisk/det-hgtd/testbeam/February2024/Digitizer/run00477/Tek00012_ch3.wfm
 [*] Decoding done... takes [0.273s]
 [*] Ploting done... takes [0.000s]
 [*] Analyze done... takes [2.054s]
 [*] Fig Saving done... takes [0.000s]
 file: Tek00012_ch3.wfm 12 3
 file: Tek00013_ch1.wfm
 file: Tek00013_ch2.wfm
 file: Tek00013_ch3.wfm
[1 2 3]
reading data: /eos/atlas/atlascerngroupdisk/det-hgtd/testbeam/February2024/Digitizer/run00477/Tek00013_ch1.wfm
 [*] Decoding done... takes [0.247s]
 [*] Ploting done... takes [0.000s]
 [*] Analyze done... takes [2.493s]
 [*] Fig Saving done... takes [0.000s]
reading data: /eos/atlas/atlascerngroupdisk/det-hgtd/testbeam/February2024/Digitizer/run00477/Tek00013_ch2.wfm
 [*] Decoding done... takes [0.158s]
 [*] Ploting done... takes [0.000s]
 [*] Analyze done... takes [2.581s]
 [*] Fig Saving done... takes [0.000s]
reading data: /eos/atlas/atlascerngroupdisk/det-hgtd/testbeam/February2024/Digitizer/run00477/Tek00013_ch3.wfm
 [*] Decoding done... takes [0.132s]
 [*] Ploting done... takes [0.000s]
 [*] Analyze done... takes [1.960s]
 [*] Fig Saving done... takes [0.000s]
 file: Tek00013_ch3.wfm 13 3
 file: Tek00014_ch1.wfm
 file: Tek00014_ch2.wfm
 file: Tek00014_ch3.wfm
[1 2 3]
reading data: /eos/atlas/atlascerngroupdisk/det-hgtd/testbeam/February2024/Digitizer/run00477/Tek00014_ch1.wfm
 [*] Decoding done... takes [0.131s]
 [*] Ploting done... takes [0.000s]
 [*] Analyze done... takes [2.477s]
 [*] Fig Saving done... takes [0.000s]
reading data: /eos/atlas/atlascerngroupdisk/det-hgtd/testbeam/February2024/Digitizer/run00477/Tek00014_ch2.wfm
 [*] Decoding done... takes [0.139s]
 [*] Ploting done... takes [0.000s]
 [*] Analyze done... takes [2.583s]
 [*] Fig Saving done... takes [0.000s]
reading data: /eos/atlas/atlascerngroupdisk/det-hgtd/testbeam/February2024/Digitizer/run00477/Tek00014_ch3.wfm
 [*] Decoding done... takes [0.364s]
 [*] Ploting done... takes [0.000s]
 [*] Analyze done... takes [1.990s]
 [*] Fig Saving done... takes [0.000s]
 file: Tek00014_ch3.wfm 14 3
 file: Tek00015_ch1.wfm
 file: Tek00015_ch2.wfm
 file: Tek00015_ch3.wfm
[1 2 3]
reading data: /eos/atlas/atlascerngroupdisk/det-hgtd/testbeam/February2024/Digitizer/run00477/Tek00015_ch1.wfm
 [*] Decoding done... takes [0.225s]
 [*] Ploting done... takes [0.000s]
 [*] Analyze done... takes [2.953s]
 [*] Fig Saving done... takes [0.000s]
reading data: /eos/atlas/atlascerngroupdisk/det-hgtd/testbeam/February2024/Digitizer/run00477/Tek00015_ch2.wfm
 [*] Decoding done... takes [0.136s]
 [*] Ploting done... takes [0.000s]
 [*] Analyze done... takes [2.539s]
 [*] Fig Saving done... takes [0.000s]
reading data: /eos/atlas/atlascerngroupdisk/det-hgtd/testbeam/February2024/Digitizer/run00477/Tek00015_ch3.wfm
 [*] Decoding done... takes [0.143s]
 [*] Ploting done... takes [0.000s]
 [*] Analyze done... takes [2.101s]
 [*] Fig Saving done... takes [0.000s]
 file: Tek00015_ch3.wfm 15 3
 file: Tek00016_ch1.wfm
 file: Tek00016_ch2.wfm
 file: Tek00016_ch3.wfm
[1 2 3]
reading data: /eos/atlas/atlascerngroupdisk/det-hgtd/testbeam/February2024/Digitizer/run00477/Tek00016_ch1.wfm
 [*] Decoding done... takes [0.145s]
 [*] Ploting done... takes [0.000s]
 [*] Analyze done... takes [2.641s]
 [*] Fig Saving done... takes [0.000s]
reading data: /eos/atlas/atlascerngroupdisk/det-hgtd/testbeam/February2024/Digitizer/run00477/Tek00016_ch2.wfm
 [*] Decoding done... takes [0.237s]
 [*] Ploting done... takes [0.000s]
 [*] Analyze done... takes [2.400s]
 [*] Fig Saving done... takes [0.000s]
reading data: /eos/atlas/atlascerngroupdisk/det-hgtd/testbeam/February2024/Digitizer/run00477/Tek00016_ch3.wfm
 [*] Decoding done... takes [0.130s]
 [*] Ploting done... takes [0.000s]
 [*] Analyze done... takes [1.995s]
 [*] Fig Saving done... takes [0.000s]
 file: Tek00016_ch3.wfm 16 3
 file: Tek00017_ch1.wfm
 file: Tek00017_ch2.wfm
 file: Tek00017_ch3.wfm
[1 2 3]
reading data: /eos/atlas/atlascerngroupdisk/det-hgtd/testbeam/February2024/Digitizer/run00477/Tek00017_ch1.wfm
 [*] Decoding done... takes [0.141s]
 [*] Ploting done... takes [0.000s]
 [*] Analyze done... takes [2.573s]
 [*] Fig Saving done... takes [0.000s]
reading data: /eos/atlas/atlascerngroupdisk/det-hgtd/testbeam/February2024/Digitizer/run00477/Tek00017_ch2.wfm
 [*] Decoding done... takes [0.123s]
 [*] Ploting done... takes [0.000s]
 [*] Analyze done... takes [2.353s]
 [*] Fig Saving done... takes [0.000s]
reading data: /eos/atlas/atlascerngroupdisk/det-hgtd/testbeam/February2024/Digitizer/run00477/Tek00017_ch3.wfm
 [*] Decoding done... takes [0.108s]
 [*] Ploting done... takes [0.000s]
 [*] Analyze done... takes [1.937s]
 [*] Fig Saving done... takes [0.000s]
 file: Tek00017_ch3.wfm 17 3
 file: Tek00018_ch1.wfm
 file: Tek00018_ch2.wfm
 file: Tek00018_ch3.wfm
[1 2 3]
reading data: /eos/atlas/atlascerngroupdisk/det-hgtd/testbeam/February2024/Digitizer/run00477/Tek00018_ch1.wfm
 [*] Decoding done... takes [0.125s]
 [*] Ploting done... takes [0.000s]
 [*] Analyze done... takes [2.714s]
 [*] Fig Saving done... takes [0.000s]
reading data: /eos/atlas/atlascerngroupdisk/det-hgtd/testbeam/February2024/Digitizer/run00477/Tek00018_ch2.wfm
 [*] Decoding done... takes [0.205s]
 [*] Ploting done... takes [0.000s]
 [*] Analyze done... takes [2.460s]
 [*] Fig Saving done... takes [0.000s]
reading data: /eos/atlas/atlascerngroupdisk/det-hgtd/testbeam/February2024/Digitizer/run00477/Tek00018_ch3.wfm
 [*] Decoding done... takes [0.131s]
 [*] Ploting done... takes [0.000s]
 [*] Analyze done... takes [1.863s]
 [*] Fig Saving done... takes [0.000s]
 file: Tek00018_ch3.wfm 18 3
 file: Tek00019_ch1.wfm
 file: Tek00019_ch2.wfm
 file: Tek00019_ch3.wfm
[1 2 3]
reading data: /eos/atlas/atlascerngroupdisk/det-hgtd/testbeam/February2024/Digitizer/run00477/Tek00019_ch1.wfm
 [*] Decoding done... takes [0.165s]
 [*] Ploting done... takes [0.000s]
 [*] Analyze done... takes [2.611s]
 [*] Fig Saving done... takes [0.000s]
reading data: /eos/atlas/atlascerngroupdisk/det-hgtd/testbeam/February2024/Digitizer/run00477/Tek00019_ch2.wfm
 [*] Decoding done... takes [0.129s]
 [*] Ploting done... takes [0.000s]
 [*] Analyze done... takes [2.494s]
 [*] Fig Saving done... takes [0.000s]
reading data: /eos/atlas/atlascerngroupdisk/det-hgtd/testbeam/February2024/Digitizer/run00477/Tek00019_ch3.wfm
 [*] Decoding done... takes [0.210s]
 [*] Ploting done... takes [0.000s]
 [*] Analyze done... takes [2.069s]
 [*] Fig Saving done... takes [0.000s]
 file: Tek00019_ch3.wfm 19 3
 file: Tek00020_ch1.wfm
 file: Tek00020_ch2.wfm
 file: Tek00020_ch3.wfm
[1 2 3]
reading data: /eos/atlas/atlascerngroupdisk/det-hgtd/testbeam/February2024/Digitizer/run00477/Tek00020_ch1.wfm
 [*] Decoding done... takes [0.185s]
 [*] Ploting done... takes [0.000s]
 [*] Analyze done... takes [2.563s]
 [*] Fig Saving done... takes [0.000s]
reading data: /eos/atlas/atlascerngroupdisk/det-hgtd/testbeam/February2024/Digitizer/run00477/Tek00020_ch2.wfm
 [*] Decoding done... takes [0.177s]
 [*] Ploting done... takes [0.000s]
 [*] Analyze done... takes [2.476s]
 [*] Fig Saving done... takes [0.000s]
reading data: /eos/atlas/atlascerngroupdisk/det-hgtd/testbeam/February2024/Digitizer/run00477/Tek00020_ch3.wfm
 [*] Decoding done... takes [0.157s]
 [*] Ploting done... takes [0.000s]
 [*] Analyze done... takes [2.080s]
 [*] Fig Saving done... takes [0.000s]
 file: Tek00020_ch3.wfm 20 3
 file: Tek00021_ch1.wfm
 file: Tek00021_ch2.wfm
 file: Tek00021_ch3.wfm
[1 2 3]
reading data: /eos/atlas/atlascerngroupdisk/det-hgtd/testbeam/February2024/Digitizer/run00477/Tek00021_ch1.wfm
 [*] Decoding done... takes [0.133s]
 [*] Ploting done... takes [0.000s]
 [*] Analyze done... takes [2.597s]
 [*] Fig Saving done... takes [0.000s]
reading data: /eos/atlas/atlascerngroupdisk/det-hgtd/testbeam/February2024/Digitizer/run00477/Tek00021_ch2.wfm
 [*] Decoding done... takes [0.124s]
 [*] Ploting done... takes [0.000s]
 [*] Analyze done... takes [2.426s]
 [*] Fig Saving done... takes [0.000s]
reading data: /eos/atlas/atlascerngroupdisk/det-hgtd/testbeam/February2024/Digitizer/run00477/Tek00021_ch3.wfm
 [*] Decoding done... takes [0.232s]
 [*] Ploting done... takes [0.000s]
 [*] Analyze done... takes [1.879s]
 [*] Fig Saving done... takes [0.000s]
 file: Tek00021_ch3.wfm 21 3
 file: Tek00022_ch1.wfm
 file: Tek00022_ch2.wfm
 file: Tek00022_ch3.wfm
[1 2 3]
reading data: /eos/atlas/atlascerngroupdisk/det-hgtd/testbeam/February2024/Digitizer/run00477/Tek00022_ch1.wfm
 [*] Decoding done... takes [0.276s]
 [*] Ploting done... takes [0.000s]
 [*] Analyze done... takes [2.625s]
 [*] Fig Saving done... takes [0.000s]
reading data: /eos/atlas/atlascerngroupdisk/det-hgtd/testbeam/February2024/Digitizer/run00477/Tek00022_ch2.wfm
 [*] Decoding done... takes [0.159s]
 [*] Ploting done... takes [0.000s]
 [*] Analyze done... takes [2.561s]
 [*] Fig Saving done... takes [0.000s]
reading data: /eos/atlas/atlascerngroupdisk/det-hgtd/testbeam/February2024/Digitizer/run00477/Tek00022_ch3.wfm
 [*] Decoding done... takes [0.173s]
 [*] Ploting done... takes [0.000s]
 [*] Analyze done... takes [2.280s]
 [*] Fig Saving done... takes [0.000s]
 file: Tek00022_ch3.wfm 22 3
 file: Tek00023_ch1.wfm
 file: Tek00023_ch2.wfm
 file: Tek00023_ch3.wfm
[1 2 3]
reading data: /eos/atlas/atlascerngroupdisk/det-hgtd/testbeam/February2024/Digitizer/run00477/Tek00023_ch1.wfm
 [*] Decoding done... takes [0.321s]
 [*] Ploting done... takes [0.000s]
 [*] Analyze done... takes [2.770s]
 [*] Fig Saving done... takes [0.000s]
reading data: /eos/atlas/atlascerngroupdisk/det-hgtd/testbeam/February2024/Digitizer/run00477/Tek00023_ch2.wfm
 [*] Decoding done... takes [0.387s]
 [*] Ploting done... takes [0.000s]
 [*] Analyze done... takes [2.691s]
 [*] Fig Saving done... takes [0.000s]
reading data: /eos/atlas/atlascerngroupdisk/det-hgtd/testbeam/February2024/Digitizer/run00477/Tek00023_ch3.wfm
 [*] Decoding done... takes [0.185s]
 [*] Ploting done... takes [0.000s]
 [*] Analyze done... takes [2.151s]
 [*] Fig Saving done... takes [0.000s]
 file: Tek00023_ch3.wfm 23 3
 file: Tek00024_ch1.wfm
 file: Tek00024_ch2.wfm
 file: Tek00024_ch3.wfm
[1 2 3]
reading data: /eos/atlas/atlascerngroupdisk/det-hgtd/testbeam/February2024/Digitizer/run00477/Tek00024_ch1.wfm
 [*] Decoding done... takes [0.164s]
 [*] Ploting done... takes [0.000s]
 [*] Analyze done... takes [2.732s]
 [*] Fig Saving done... takes [0.000s]
reading data: /eos/atlas/atlascerngroupdisk/det-hgtd/testbeam/February2024/Digitizer/run00477/Tek00024_ch2.wfm
 [*] Decoding done... takes [0.191s]
 [*] Ploting done... takes [0.000s]
 [*] Analyze done... takes [2.645s]
 [*] Fig Saving done... takes [0.000s]
reading data: /eos/atlas/atlascerngroupdisk/det-hgtd/testbeam/February2024/Digitizer/run00477/Tek00024_ch3.wfm
 [*] Decoding done... takes [0.164s]
 [*] Ploting done... takes [0.000s]
 [*] Analyze done... takes [2.080s]
 [*] Fig Saving done... takes [0.000s]
 file: Tek00024_ch3.wfm 24 3
 file: Tek00025_ch1.wfm
 file: Tek00025_ch2.wfm
 file: Tek00025_ch3.wfm
[1 2 3]
reading data: /eos/atlas/atlascerngroupdisk/det-hgtd/testbeam/February2024/Digitizer/run00477/Tek00025_ch1.wfm
 [*] Decoding done... takes [0.291s]
 [*] Ploting done... takes [0.000s]
 [*] Analyze done... takes [2.643s]
 [*] Fig Saving done... takes [0.000s]
reading data: /eos/atlas/atlascerngroupdisk/det-hgtd/testbeam/February2024/Digitizer/run00477/Tek00025_ch2.wfm
 [*] Decoding done... takes [0.115s]
 [*] Ploting done... takes [0.000s]
 [*] Analyze done... takes [2.476s]
 [*] Fig Saving done... takes [0.000s]
reading data: /eos/atlas/atlascerngroupdisk/det-hgtd/testbeam/February2024/Digitizer/run00477/Tek00025_ch3.wfm
 [*] Decoding done... takes [0.156s]
 [*] Ploting done... takes [0.000s]
 [*] Analyze done... takes [2.032s]
 [*] Fig Saving done... takes [0.000s]
 file: Tek00025_ch3.wfm 25 3
 file: Tek00026_ch1.wfm
 file: Tek00026_ch2.wfm
 file: Tek00026_ch3.wfm
[1 2 3]
reading data: /eos/atlas/atlascerngroupdisk/det-hgtd/testbeam/February2024/Digitizer/run00477/Tek00026_ch1.wfm
 [*] Decoding done... takes [0.148s]
 [*] Ploting done... takes [0.000s]
 [*] Analyze done... takes [2.638s]
 [*] Fig Saving done... takes [0.000s]
reading data: /eos/atlas/atlascerngroupdisk/det-hgtd/testbeam/February2024/Digitizer/run00477/Tek00026_ch2.wfm
 [*] Decoding done... takes [0.122s]
 [*] Ploting done... takes [0.000s]
 [*] Analyze done... takes [2.516s]
 [*] Fig Saving done... takes [0.000s]
reading data: /eos/atlas/atlascerngroupdisk/det-hgtd/testbeam/February2024/Digitizer/run00477/Tek00026_ch3.wfm
 [*] Decoding done... takes [0.293s]
 [*] Ploting done... takes [0.000s]
 [*] Analyze done... takes [2.249s]
 [*] Fig Saving done... takes [0.000s]
 file: Tek00026_ch3.wfm 26 3
 file: Tek00027_ch1.wfm
 file: Tek00027_ch2.wfm
 file: Tek00027_ch3.wfm
[1 2 3]
reading data: /eos/atlas/atlascerngroupdisk/det-hgtd/testbeam/February2024/Digitizer/run00477/Tek00027_ch1.wfm
 [*] Decoding done... takes [0.166s]
 [*] Ploting done... takes [0.000s]
 [*] Analyze done... takes [2.662s]
 [*] Fig Saving done... takes [0.000s]
reading data: /eos/atlas/atlascerngroupdisk/det-hgtd/testbeam/February2024/Digitizer/run00477/Tek00027_ch2.wfm
 [*] Decoding done... takes [0.171s]
 [*] Ploting done... takes [0.000s]
 [*] Analyze done... takes [2.472s]
 [*] Fig Saving done... takes [0.000s]
reading data: /eos/atlas/atlascerngroupdisk/det-hgtd/testbeam/February2024/Digitizer/run00477/Tek00027_ch3.wfm
 [*] Decoding done... takes [0.139s]
 [*] Ploting done... takes [0.000s]
 [*] Analyze done... takes [2.019s]
 [*] Fig Saving done... takes [0.000s]
 file: Tek00027_ch3.wfm 27 3
 file: Tek00028_ch1.wfm
 file: Tek00028_ch2.wfm
 file: Tek00028_ch3.wfm
[1 2 3]
reading data: /eos/atlas/atlascerngroupdisk/det-hgtd/testbeam/February2024/Digitizer/run00477/Tek00028_ch1.wfm
 [*] Decoding done... takes [0.169s]
 [*] Ploting done... takes [0.000s]
 [*] Analyze done... takes [2.650s]
 [*] Fig Saving done... takes [0.000s]
reading data: /eos/atlas/atlascerngroupdisk/det-hgtd/testbeam/February2024/Digitizer/run00477/Tek00028_ch2.wfm
 [*] Decoding done... takes [0.201s]
 [*] Ploting done... takes [0.000s]
 [*] Analyze done... takes [2.480s]
 [*] Fig Saving done... takes [0.000s]
reading data: /eos/atlas/atlascerngroupdisk/det-hgtd/testbeam/February2024/Digitizer/run00477/Tek00028_ch3.wfm
 [*] Decoding done... takes [0.130s]
 [*] Ploting done... takes [0.000s]
 [*] Analyze done... takes [2.021s]
 [*] Fig Saving done... takes [0.000s]
 file: Tek00028_ch3.wfm 28 3
 file: Tek00029_ch1.wfm
 file: Tek00029_ch2.wfm
 file: Tek00029_ch3.wfm
[1 2 3]
reading data: /eos/atlas/atlascerngroupdisk/det-hgtd/testbeam/February2024/Digitizer/run00477/Tek00029_ch1.wfm
 [*] Decoding done... takes [0.112s]
 [*] Ploting done... takes [0.000s]
 [*] Analyze done... takes [2.473s]
 [*] Fig Saving done... takes [0.000s]
reading data: /eos/atlas/atlascerngroupdisk/det-hgtd/testbeam/February2024/Digitizer/run00477/Tek00029_ch2.wfm
 [*] Decoding done... takes [0.366s]
 [*] Ploting done... takes [0.000s]
 [*] Analyze done... takes [2.555s]
 [*] Fig Saving done... takes [0.000s]
reading data: /eos/atlas/atlascerngroupdisk/det-hgtd/testbeam/February2024/Digitizer/run00477/Tek00029_ch3.wfm
 [*] Decoding done... takes [0.112s]
 [*] Ploting done... takes [0.000s]
 [*] Analyze done... takes [1.922s]
 [*] Fig Saving done... takes [0.000s]
 file: Tek00029_ch3.wfm 29 3
 file: Tek00030_ch1.wfm
 file: Tek00030_ch2.wfm
 file: Tek00030_ch3.wfm
[1 2 3]
reading data: /eos/atlas/atlascerngroupdisk/det-hgtd/testbeam/February2024/Digitizer/run00477/Tek00030_ch1.wfm
 [*] Decoding done... takes [0.111s]
 [*] Ploting done... takes [0.000s]
 [*] Analyze done... takes [2.625s]
 [*] Fig Saving done... takes [0.000s]
reading data: /eos/atlas/atlascerngroupdisk/det-hgtd/testbeam/February2024/Digitizer/run00477/Tek00030_ch2.wfm
 [*] Decoding done... takes [0.158s]
 [*] Ploting done... takes [0.000s]
 [*] Analyze done... takes [2.470s]
 [*] Fig Saving done... takes [0.000s]
reading data: /eos/atlas/atlascerngroupdisk/det-hgtd/testbeam/February2024/Digitizer/run00477/Tek00030_ch3.wfm
 [*] Decoding done... takes [0.147s]
 [*] Ploting done... takes [0.000s]
 [*] Analyze done... takes [1.926s]
 [*] Fig Saving done... takes [0.000s]
 file: Tek00030_ch3.wfm 30 3
 file: Tek00031_ch1.wfm
 file: Tek00031_ch2.wfm
 file: Tek00031_ch3.wfm
[1 2 3]
reading data: /eos/atlas/atlascerngroupdisk/det-hgtd/testbeam/February2024/Digitizer/run00477/Tek00031_ch1.wfm
 [*] Decoding done... takes [0.202s]
 [*] Ploting done... takes [0.000s]
 [*] Analyze done... takes [2.657s]
 [*] Fig Saving done... takes [0.000s]
reading data: /eos/atlas/atlascerngroupdisk/det-hgtd/testbeam/February2024/Digitizer/run00477/Tek00031_ch2.wfm
 [*] Decoding done... takes [0.124s]
 [*] Ploting done... takes [0.000s]
 [*] Analyze done... takes [2.418s]
 [*] Fig Saving done... takes [0.000s]
reading data: /eos/atlas/atlascerngroupdisk/det-hgtd/testbeam/February2024/Digitizer/run00477/Tek00031_ch3.wfm
 [*] Decoding done... takes [0.141s]
 [*] Ploting done... takes [0.000s]
 [*] Analyze done... takes [2.141s]
 [*] Fig Saving done... takes [0.000s]
 file: Tek00031_ch3.wfm 31 3
 file: Tek00032_ch1.wfm
 file: Tek00032_ch2.wfm
 file: Tek00032_ch3.wfm
[1 2 3]
reading data: /eos/atlas/atlascerngroupdisk/det-hgtd/testbeam/February2024/Digitizer/run00477/Tek00032_ch1.wfm
 [*] Decoding done... takes [0.112s]
 [*] Ploting done... takes [0.000s]
 [*] Analyze done... takes [2.494s]
 [*] Fig Saving done... takes [0.000s]
reading data: /eos/atlas/atlascerngroupdisk/det-hgtd/testbeam/February2024/Digitizer/run00477/Tek00032_ch2.wfm
 [*] Decoding done... takes [0.235s]
 [*] Ploting done... takes [0.000s]
 [*] Analyze done... takes [2.352s]
 [*] Fig Saving done... takes [0.000s]
reading data: /eos/atlas/atlascerngroupdisk/det-hgtd/testbeam/February2024/Digitizer/run00477/Tek00032_ch3.wfm
 [*] Decoding done... takes [0.173s]
 [*] Ploting done... takes [0.000s]
 [*] Analyze done... takes [1.913s]
 [*] Fig Saving done... takes [0.000s]
 file: Tek00032_ch3.wfm 32 3
 file: Tek00033_ch1.wfm
 file: Tek00033_ch2.wfm
 file: Tek00033_ch3.wfm
[1 2 3]
reading data: /eos/atlas/atlascerngroupdisk/det-hgtd/testbeam/February2024/Digitizer/run00477/Tek00033_ch1.wfm
 [*] Decoding done... takes [0.065s]
 [*] Ploting done... takes [0.000s]
 [*] Analyze done... takes [1.036s]
 [*] Fig Saving done... takes [0.000s]
reading data: /eos/atlas/atlascerngroupdisk/det-hgtd/testbeam/February2024/Digitizer/run00477/Tek00033_ch2.wfm
 [*] Decoding done... takes [0.067s]
 [*] Ploting done... takes [0.000s]
 [*] Analyze done... takes [1.001s]
 [*] Fig Saving done... takes [0.000s]
reading data: /eos/atlas/atlascerngroupdisk/det-hgtd/testbeam/February2024/Digitizer/run00477/Tek00033_ch3.wfm
 [*] Decoding done... takes [0.080s]
 [*] Ploting done... takes [0.000s]
 [*] Analyze done... takes [0.751s]
 [*] Fig Saving done... takes [0.000s]
 file: Tek00033_ch3.wfm 33 3
