---------------------------------------------
Setting special contour style...
---------------------------------------------
---------------------------------------------
Loading ATLAS style Macros ...
---------------------------------------------
checking input dir.....
 --- /eos/atlas/atlascerngroupdisk/det-hgtd/testbeam/February2024/Digitizer/run00413
/eos/atlas/atlascerngroupdisk/det-hgtd/testbeam/February2024/Digitizer

 --- These channels are present in 413: [1 2 3] --- 
 file: Tek0000_ch1.wfm
 file: Tek0000_ch2.wfm
 file: Tek0000_ch3.wfm
[1 2 3]
reading data: /eos/atlas/atlascerngroupdisk/det-hgtd/testbeam/February2024/Digitizer/run00413/Tek0000_ch1.wfm
 [*] Decoding done... takes [0.083s]
 [*] Ploting done... takes [0.000s]
 [*] Analyze done... takes [2.441s]
 [*] Fig Saving done... takes [0.000s]
reading data: /eos/atlas/atlascerngroupdisk/det-hgtd/testbeam/February2024/Digitizer/run00413/Tek0000_ch2.wfm
 [*] Decoding done... takes [0.137s]
 [*] Ploting done... takes [0.000s]
 [*] Analyze done... takes [2.301s]
 [*] Fig Saving done... takes [0.000s]
reading data: /eos/atlas/atlascerngroupdisk/det-hgtd/testbeam/February2024/Digitizer/run00413/Tek0000_ch3.wfm
 [*] Decoding done... takes [0.057s]
 [*] Ploting done... takes [0.000s]
 [*] Analyze done... takes [2.155s]
 [*] Fig Saving done... takes [0.000s]
 file: Tek0000_ch3.wfm 0 3
