---------------------------------------------
Setting special contour style...
---------------------------------------------
---------------------------------------------
Loading ATLAS style Macros ...
---------------------------------------------
0
40000
680000
960000
1140000
1280000
1640000
2060000
2160000
2540000
2560000
2980000
Finished writing data to /eos/atlas/atlascerngroupdisk/det-hgtd/testbeam/February2024/Alvin/ntuples/Alvin-February2024-00490.root
