---------------------------------------------
Setting special contour style...
---------------------------------------------
---------------------------------------------
Loading ATLAS style Macros ...
---------------------------------------------
checking input dir.....
 --- /eos/atlas/atlascerngroupdisk/det-hgtd/testbeam/February2024/Digitizer/run00420
/eos/atlas/atlascerngroupdisk/det-hgtd/testbeam/February2024/Digitizer

 --- These channels are present in 420: [1 2 3] --- 
 file: Tek0000_ch1.wfm
 file: Tek0000_ch2.wfm
 file: Tek0000_ch3.wfm
[1 2 3]
reading data: /eos/atlas/atlascerngroupdisk/det-hgtd/testbeam/February2024/Digitizer/run00420/Tek0000_ch1.wfm
 [*] Decoding done... takes [0.207s]
 [*] Ploting done... takes [0.000s]
 [*] Analyze done... takes [4.644s]
 [*] Fig Saving done... takes [0.000s]
reading data: /eos/atlas/atlascerngroupdisk/det-hgtd/testbeam/February2024/Digitizer/run00420/Tek0000_ch2.wfm
 [*] Decoding done... takes [0.207s]
 [*] Ploting done... takes [0.000s]
 [*] Analyze done... takes [4.519s]
 [*] Fig Saving done... takes [0.000s]
reading data: /eos/atlas/atlascerngroupdisk/det-hgtd/testbeam/February2024/Digitizer/run00420/Tek0000_ch3.wfm
 [*] Decoding done... takes [0.104s]
 [*] Ploting done... takes [0.000s]
 [*] Analyze done... takes [3.904s]
 [*] Fig Saving done... takes [0.000s]
 file: Tek0000_ch3.wfm 0 3
 file: Tek0001_ch1.wfm
 file: Tek0001_ch2.wfm
 file: Tek0001_ch3.wfm
[1 2 3]
reading data: /eos/atlas/atlascerngroupdisk/det-hgtd/testbeam/February2024/Digitizer/run00420/Tek0001_ch1.wfm
 [*] Decoding done... takes [0.130s]
 [*] Ploting done... takes [0.000s]
 [*] Analyze done... takes [4.730s]
 [*] Fig Saving done... takes [0.000s]
reading data: /eos/atlas/atlascerngroupdisk/det-hgtd/testbeam/February2024/Digitizer/run00420/Tek0001_ch2.wfm
 [*] Decoding done... takes [0.118s]
 [*] Ploting done... takes [0.000s]
 [*] Analyze done... takes [4.601s]
 [*] Fig Saving done... takes [0.000s]
reading data: /eos/atlas/atlascerngroupdisk/det-hgtd/testbeam/February2024/Digitizer/run00420/Tek0001_ch3.wfm
 [*] Decoding done... takes [0.130s]
 [*] Ploting done... takes [0.000s]
 [*] Analyze done... takes [4.090s]
 [*] Fig Saving done... takes [0.000s]
 file: Tek0001_ch3.wfm 1 3
 file: Tek0002_ch1.wfm
 file: Tek0002_ch2.wfm
 file: Tek0002_ch3.wfm
[1 2 3]
reading data: /eos/atlas/atlascerngroupdisk/det-hgtd/testbeam/February2024/Digitizer/run00420/Tek0002_ch1.wfm
 [*] Decoding done... takes [0.213s]
 [*] Ploting done... takes [0.000s]
 [*] Analyze done... takes [4.864s]
 [*] Fig Saving done... takes [0.000s]
reading data: /eos/atlas/atlascerngroupdisk/det-hgtd/testbeam/February2024/Digitizer/run00420/Tek0002_ch2.wfm
 [*] Decoding done... takes [0.135s]
 [*] Ploting done... takes [0.000s]
 [*] Analyze done... takes [4.663s]
 [*] Fig Saving done... takes [0.000s]
reading data: /eos/atlas/atlascerngroupdisk/det-hgtd/testbeam/February2024/Digitizer/run00420/Tek0002_ch3.wfm
 [*] Decoding done... takes [0.133s]
 [*] Ploting done... takes [0.000s]
 [*] Analyze done... takes [4.057s]
 [*] Fig Saving done... takes [0.000s]
 file: Tek0002_ch3.wfm 2 3
 file: Tek0003_ch1.wfm
 file: Tek0003_ch2.wfm
 file: Tek0003_ch3.wfm
[1 2 3]
reading data: /eos/atlas/atlascerngroupdisk/det-hgtd/testbeam/February2024/Digitizer/run00420/Tek0003_ch1.wfm
 [*] Decoding done... takes [0.172s]
 [*] Ploting done... takes [0.000s]
 [*] Analyze done... takes [4.697s]
 [*] Fig Saving done... takes [0.000s]
reading data: /eos/atlas/atlascerngroupdisk/det-hgtd/testbeam/February2024/Digitizer/run00420/Tek0003_ch2.wfm
 [*] Decoding done... takes [0.274s]
 [*] Ploting done... takes [0.000s]
 [*] Analyze done... takes [4.648s]
 [*] Fig Saving done... takes [0.000s]
reading data: /eos/atlas/atlascerngroupdisk/det-hgtd/testbeam/February2024/Digitizer/run00420/Tek0003_ch3.wfm
 [*] Decoding done... takes [0.116s]
 [*] Ploting done... takes [0.000s]
 [*] Analyze done... takes [4.293s]
 [*] Fig Saving done... takes [0.000s]
 file: Tek0003_ch3.wfm 3 3
 file: Tek0004_ch1.wfm
 file: Tek0004_ch2.wfm
 file: Tek0004_ch3.wfm
[1 2 3]
reading data: /eos/atlas/atlascerngroupdisk/det-hgtd/testbeam/February2024/Digitizer/run00420/Tek0004_ch1.wfm
 [*] Decoding done... takes [0.113s]
 [*] Ploting done... takes [0.000s]
 [*] Analyze done... takes [4.754s]
 [*] Fig Saving done... takes [0.000s]
reading data: /eos/atlas/atlascerngroupdisk/det-hgtd/testbeam/February2024/Digitizer/run00420/Tek0004_ch2.wfm
 [*] Decoding done... takes [0.109s]
 [*] Ploting done... takes [0.000s]
 [*] Analyze done... takes [4.643s]
 [*] Fig Saving done... takes [0.000s]
reading data: /eos/atlas/atlascerngroupdisk/det-hgtd/testbeam/February2024/Digitizer/run00420/Tek0004_ch3.wfm
 [*] Decoding done... takes [0.117s]
 [*] Ploting done... takes [0.000s]
 [*] Analyze done... takes [3.891s]
 [*] Fig Saving done... takes [0.000s]
 file: Tek0004_ch3.wfm 4 3
 file: Tek0005_ch1.wfm
 file: Tek0005_ch2.wfm
 file: Tek0005_ch3.wfm
[1 2 3]
reading data: /eos/atlas/atlascerngroupdisk/det-hgtd/testbeam/February2024/Digitizer/run00420/Tek0005_ch1.wfm
 [*] Decoding done... takes [0.131s]
 [*] Ploting done... takes [0.000s]
 [*] Analyze done... takes [4.560s]
 [*] Fig Saving done... takes [0.000s]
reading data: /eos/atlas/atlascerngroupdisk/det-hgtd/testbeam/February2024/Digitizer/run00420/Tek0005_ch2.wfm
 [*] Decoding done... takes [0.123s]
 [*] Ploting done... takes [0.000s]
 [*] Analyze done... takes [4.521s]
 [*] Fig Saving done... takes [0.000s]
reading data: /eos/atlas/atlascerngroupdisk/det-hgtd/testbeam/February2024/Digitizer/run00420/Tek0005_ch3.wfm
 [*] Decoding done... takes [0.128s]
 [*] Ploting done... takes [0.000s]
 [*] Analyze done... takes [4.049s]
 [*] Fig Saving done... takes [0.000s]
 file: Tek0005_ch3.wfm 5 3
 file: Tek0006_ch1.wfm
 file: Tek0006_ch2.wfm
 file: Tek0006_ch3.wfm
[1 2 3]
reading data: /eos/atlas/atlascerngroupdisk/det-hgtd/testbeam/February2024/Digitizer/run00420/Tek0006_ch1.wfm
 [*] Decoding done... takes [0.126s]
 [*] Ploting done... takes [0.000s]
 [*] Analyze done... takes [4.514s]
 [*] Fig Saving done... takes [0.000s]
reading data: /eos/atlas/atlascerngroupdisk/det-hgtd/testbeam/February2024/Digitizer/run00420/Tek0006_ch2.wfm
 [*] Decoding done... takes [0.125s]
 [*] Ploting done... takes [0.000s]
 [*] Analyze done... takes [4.485s]
 [*] Fig Saving done... takes [0.000s]
reading data: /eos/atlas/atlascerngroupdisk/det-hgtd/testbeam/February2024/Digitizer/run00420/Tek0006_ch3.wfm
 [*] Decoding done... takes [0.099s]
 [*] Ploting done... takes [0.000s]
 [*] Analyze done... takes [3.926s]
 [*] Fig Saving done... takes [0.000s]
 file: Tek0006_ch3.wfm 6 3
 file: Tek0007_ch1.wfm
 file: Tek0007_ch2.wfm
 file: Tek0007_ch3.wfm
[1 2 3]
reading data: /eos/atlas/atlascerngroupdisk/det-hgtd/testbeam/February2024/Digitizer/run00420/Tek0007_ch1.wfm
 [*] Decoding done... takes [0.116s]
 [*] Ploting done... takes [0.000s]
 [*] Analyze done... takes [4.908s]
 [*] Fig Saving done... takes [0.000s]
reading data: /eos/atlas/atlascerngroupdisk/det-hgtd/testbeam/February2024/Digitizer/run00420/Tek0007_ch2.wfm
 [*] Decoding done... takes [0.144s]
 [*] Ploting done... takes [0.000s]
 [*] Analyze done... takes [4.699s]
 [*] Fig Saving done... takes [0.000s]
reading data: /eos/atlas/atlascerngroupdisk/det-hgtd/testbeam/February2024/Digitizer/run00420/Tek0007_ch3.wfm
 [*] Decoding done... takes [0.127s]
 [*] Ploting done... takes [0.000s]
 [*] Analyze done... takes [4.210s]
 [*] Fig Saving done... takes [0.000s]
 file: Tek0007_ch3.wfm 7 3
 file: Tek0008_ch1.wfm
 file: Tek0008_ch2.wfm
 file: Tek0008_ch3.wfm
[1 2 3]
reading data: /eos/atlas/atlascerngroupdisk/det-hgtd/testbeam/February2024/Digitizer/run00420/Tek0008_ch1.wfm
 [*] Decoding done... takes [0.131s]
 [*] Ploting done... takes [0.000s]
 [*] Analyze done... takes [4.834s]
 [*] Fig Saving done... takes [0.000s]
reading data: /eos/atlas/atlascerngroupdisk/det-hgtd/testbeam/February2024/Digitizer/run00420/Tek0008_ch2.wfm
 [*] Decoding done... takes [0.145s]
 [*] Ploting done... takes [0.000s]
 [*] Analyze done... takes [4.597s]
 [*] Fig Saving done... takes [0.000s]
reading data: /eos/atlas/atlascerngroupdisk/det-hgtd/testbeam/February2024/Digitizer/run00420/Tek0008_ch3.wfm
 [*] Decoding done... takes [0.153s]
 [*] Ploting done... takes [0.000s]
 [*] Analyze done... takes [4.230s]
 [*] Fig Saving done... takes [0.000s]
 file: Tek0008_ch3.wfm 8 3
 file: Tek0009_ch1.wfm
 file: Tek0009_ch2.wfm
 file: Tek0009_ch3.wfm
[1 2 3]
reading data: /eos/atlas/atlascerngroupdisk/det-hgtd/testbeam/February2024/Digitizer/run00420/Tek0009_ch1.wfm
 [*] Decoding done... takes [0.175s]
 [*] Ploting done... takes [0.000s]
 [*] Analyze done... takes [4.565s]
 [*] Fig Saving done... takes [0.000s]
reading data: /eos/atlas/atlascerngroupdisk/det-hgtd/testbeam/February2024/Digitizer/run00420/Tek0009_ch2.wfm
 [*] Decoding done... takes [0.146s]
 [*] Ploting done... takes [0.000s]
 [*] Analyze done... takes [4.458s]
 [*] Fig Saving done... takes [0.000s]
reading data: /eos/atlas/atlascerngroupdisk/det-hgtd/testbeam/February2024/Digitizer/run00420/Tek0009_ch3.wfm
 [*] Decoding done... takes [0.125s]
 [*] Ploting done... takes [0.000s]
 [*] Analyze done... takes [3.952s]
 [*] Fig Saving done... takes [0.000s]
 file: Tek0009_ch3.wfm 9 3
 file: Tek00010_ch1.wfm
 file: Tek00010_ch2.wfm
 file: Tek00010_ch3.wfm
[1 2 3]
reading data: /eos/atlas/atlascerngroupdisk/det-hgtd/testbeam/February2024/Digitizer/run00420/Tek00010_ch1.wfm
 [*] Decoding done... takes [0.188s]
 [*] Ploting done... takes [0.000s]
 [*] Analyze done... takes [4.761s]
 [*] Fig Saving done... takes [0.000s]
reading data: /eos/atlas/atlascerngroupdisk/det-hgtd/testbeam/February2024/Digitizer/run00420/Tek00010_ch2.wfm
 [*] Decoding done... takes [0.136s]
 [*] Ploting done... takes [0.000s]
 [*] Analyze done... takes [4.481s]
 [*] Fig Saving done... takes [0.000s]
reading data: /eos/atlas/atlascerngroupdisk/det-hgtd/testbeam/February2024/Digitizer/run00420/Tek00010_ch3.wfm
 [*] Decoding done... takes [0.107s]
 [*] Ploting done... takes [0.000s]
 [*] Analyze done... takes [4.044s]
 [*] Fig Saving done... takes [0.000s]
 file: Tek00010_ch3.wfm 10 3
 file: Tek00011_ch1.wfm
 file: Tek00011_ch2.wfm
 file: Tek00011_ch3.wfm
[1 2 3]
reading data: /eos/atlas/atlascerngroupdisk/det-hgtd/testbeam/February2024/Digitizer/run00420/Tek00011_ch1.wfm
 [*] Decoding done... takes [0.111s]
 [*] Ploting done... takes [0.000s]
 [*] Analyze done... takes [4.589s]
 [*] Fig Saving done... takes [0.000s]
reading data: /eos/atlas/atlascerngroupdisk/det-hgtd/testbeam/February2024/Digitizer/run00420/Tek00011_ch2.wfm
 [*] Decoding done... takes [0.114s]
 [*] Ploting done... takes [0.000s]
 [*] Analyze done... takes [4.404s]
 [*] Fig Saving done... takes [0.000s]
reading data: /eos/atlas/atlascerngroupdisk/det-hgtd/testbeam/February2024/Digitizer/run00420/Tek00011_ch3.wfm
 [*] Decoding done... takes [0.114s]
 [*] Ploting done... takes [0.000s]
 [*] Analyze done... takes [3.968s]
 [*] Fig Saving done... takes [0.000s]
 file: Tek00011_ch3.wfm 11 3
 file: Tek00012_ch1.wfm
 file: Tek00012_ch2.wfm
 file: Tek00012_ch3.wfm
[1 2 3]
reading data: /eos/atlas/atlascerngroupdisk/det-hgtd/testbeam/February2024/Digitizer/run00420/Tek00012_ch1.wfm
 [*] Decoding done... takes [0.121s]
 [*] Ploting done... takes [0.000s]
 [*] Analyze done... takes [4.681s]
 [*] Fig Saving done... takes [0.000s]
reading data: /eos/atlas/atlascerngroupdisk/det-hgtd/testbeam/February2024/Digitizer/run00420/Tek00012_ch2.wfm
 [*] Decoding done... takes [0.185s]
 [*] Ploting done... takes [0.000s]
 [*] Analyze done... takes [4.698s]
 [*] Fig Saving done... takes [0.000s]
reading data: /eos/atlas/atlascerngroupdisk/det-hgtd/testbeam/February2024/Digitizer/run00420/Tek00012_ch3.wfm
 [*] Decoding done... takes [0.132s]
 [*] Ploting done... takes [0.000s]
 [*] Analyze done... takes [4.061s]
 [*] Fig Saving done... takes [0.000s]
 file: Tek00012_ch3.wfm 12 3
 file: Tek00013_ch1.wfm
 file: Tek00013_ch2.wfm
 file: Tek00013_ch3.wfm
[1 2 3]
reading data: /eos/atlas/atlascerngroupdisk/det-hgtd/testbeam/February2024/Digitizer/run00420/Tek00013_ch1.wfm
 [*] Decoding done... takes [0.122s]
 [*] Ploting done... takes [0.000s]
 [*] Analyze done... takes [4.696s]
 [*] Fig Saving done... takes [0.000s]
reading data: /eos/atlas/atlascerngroupdisk/det-hgtd/testbeam/February2024/Digitizer/run00420/Tek00013_ch2.wfm
 [*] Decoding done... takes [0.120s]
 [*] Ploting done... takes [0.000s]
 [*] Analyze done... takes [4.523s]
 [*] Fig Saving done... takes [0.000s]
reading data: /eos/atlas/atlascerngroupdisk/det-hgtd/testbeam/February2024/Digitizer/run00420/Tek00013_ch3.wfm
 [*] Decoding done... takes [0.114s]
 [*] Ploting done... takes [0.000s]
 [*] Analyze done... takes [4.023s]
 [*] Fig Saving done... takes [0.000s]
 file: Tek00013_ch3.wfm 13 3
 file: Tek00014_ch1.wfm
 file: Tek00014_ch2.wfm
 file: Tek00014_ch3.wfm
[1 2 3]
reading data: /eos/atlas/atlascerngroupdisk/det-hgtd/testbeam/February2024/Digitizer/run00420/Tek00014_ch1.wfm
 [*] Decoding done... takes [0.105s]
 [*] Ploting done... takes [0.000s]
 [*] Analyze done... takes [4.667s]
 [*] Fig Saving done... takes [0.000s]
reading data: /eos/atlas/atlascerngroupdisk/det-hgtd/testbeam/February2024/Digitizer/run00420/Tek00014_ch2.wfm
 [*] Decoding done... takes [0.135s]
 [*] Ploting done... takes [0.000s]
 [*] Analyze done... takes [4.590s]
 [*] Fig Saving done... takes [0.000s]
reading data: /eos/atlas/atlascerngroupdisk/det-hgtd/testbeam/February2024/Digitizer/run00420/Tek00014_ch3.wfm
 [*] Decoding done... takes [0.128s]
 [*] Ploting done... takes [0.000s]
 [*] Analyze done... takes [4.077s]
 [*] Fig Saving done... takes [0.000s]
 file: Tek00014_ch3.wfm 14 3
 file: Tek00015_ch1.wfm
 file: Tek00015_ch2.wfm
 file: Tek00015_ch3.wfm
[1 2 3]
reading data: /eos/atlas/atlascerngroupdisk/det-hgtd/testbeam/February2024/Digitizer/run00420/Tek00015_ch1.wfm
 [*] Decoding done... takes [0.117s]
 [*] Ploting done... takes [0.000s]
 [*] Analyze done... takes [4.774s]
 [*] Fig Saving done... takes [0.000s]
reading data: /eos/atlas/atlascerngroupdisk/det-hgtd/testbeam/February2024/Digitizer/run00420/Tek00015_ch2.wfm
 [*] Decoding done... takes [0.104s]
 [*] Ploting done... takes [0.000s]
 [*] Analyze done... takes [4.647s]
 [*] Fig Saving done... takes [0.000s]
reading data: /eos/atlas/atlascerngroupdisk/det-hgtd/testbeam/February2024/Digitizer/run00420/Tek00015_ch3.wfm
 [*] Decoding done... takes [0.099s]
 [*] Ploting done... takes [0.000s]
 [*] Analyze done... takes [4.125s]
 [*] Fig Saving done... takes [0.000s]
 file: Tek00015_ch3.wfm 15 3
 file: Tek00016_ch1.wfm
 file: Tek00016_ch2.wfm
 file: Tek00016_ch3.wfm
[1 2 3]
reading data: /eos/atlas/atlascerngroupdisk/det-hgtd/testbeam/February2024/Digitizer/run00420/Tek00016_ch1.wfm
 [*] Decoding done... takes [0.143s]
 [*] Ploting done... takes [0.000s]
 [*] Analyze done... takes [4.739s]
 [*] Fig Saving done... takes [0.000s]
reading data: /eos/atlas/atlascerngroupdisk/det-hgtd/testbeam/February2024/Digitizer/run00420/Tek00016_ch2.wfm
 [*] Decoding done... takes [0.143s]
 [*] Ploting done... takes [0.000s]
 [*] Analyze done... takes [4.499s]
 [*] Fig Saving done... takes [0.000s]
reading data: /eos/atlas/atlascerngroupdisk/det-hgtd/testbeam/February2024/Digitizer/run00420/Tek00016_ch3.wfm
 [*] Decoding done... takes [0.134s]
 [*] Ploting done... takes [0.000s]
 [*] Analyze done... takes [4.038s]
 [*] Fig Saving done... takes [0.000s]
 file: Tek00016_ch3.wfm 16 3
 file: Tek00017_ch1.wfm
 file: Tek00017_ch2.wfm
 file: Tek00017_ch3.wfm
[1 2 3]
reading data: /eos/atlas/atlascerngroupdisk/det-hgtd/testbeam/February2024/Digitizer/run00420/Tek00017_ch1.wfm
 [*] Decoding done... takes [0.117s]
 [*] Ploting done... takes [0.000s]
 [*] Analyze done... takes [4.685s]
 [*] Fig Saving done... takes [0.000s]
reading data: /eos/atlas/atlascerngroupdisk/det-hgtd/testbeam/February2024/Digitizer/run00420/Tek00017_ch2.wfm
 [*] Decoding done... takes [0.133s]
 [*] Ploting done... takes [0.000s]
 [*] Analyze done... takes [4.425s]
 [*] Fig Saving done... takes [0.000s]
reading data: /eos/atlas/atlascerngroupdisk/det-hgtd/testbeam/February2024/Digitizer/run00420/Tek00017_ch3.wfm
 [*] Decoding done... takes [0.125s]
 [*] Ploting done... takes [0.000s]
 [*] Analyze done... takes [4.053s]
 [*] Fig Saving done... takes [0.000s]
 file: Tek00017_ch3.wfm 17 3
 file: Tek00018_ch1.wfm
 file: Tek00018_ch2.wfm
 file: Tek00018_ch3.wfm
[1 2 3]
reading data: /eos/atlas/atlascerngroupdisk/det-hgtd/testbeam/February2024/Digitizer/run00420/Tek00018_ch1.wfm
 [*] Decoding done... takes [0.117s]
 [*] Ploting done... takes [0.000s]
 [*] Analyze done... takes [4.650s]
 [*] Fig Saving done... takes [0.000s]
reading data: /eos/atlas/atlascerngroupdisk/det-hgtd/testbeam/February2024/Digitizer/run00420/Tek00018_ch2.wfm
 [*] Decoding done... takes [0.109s]
 [*] Ploting done... takes [0.000s]
 [*] Analyze done... takes [4.309s]
 [*] Fig Saving done... takes [0.000s]
reading data: /eos/atlas/atlascerngroupdisk/det-hgtd/testbeam/February2024/Digitizer/run00420/Tek00018_ch3.wfm
 [*] Decoding done... takes [0.117s]
 [*] Ploting done... takes [0.000s]
 [*] Analyze done... takes [3.950s]
 [*] Fig Saving done... takes [0.000s]
 file: Tek00018_ch3.wfm 18 3
 file: Tek00019_ch1.wfm
 file: Tek00019_ch2.wfm
 file: Tek00019_ch3.wfm
[1 2 3]
reading data: /eos/atlas/atlascerngroupdisk/det-hgtd/testbeam/February2024/Digitizer/run00420/Tek00019_ch1.wfm
 [*] Decoding done... takes [0.147s]
 [*] Ploting done... takes [0.000s]
 [*] Analyze done... takes [4.549s]
 [*] Fig Saving done... takes [0.000s]
reading data: /eos/atlas/atlascerngroupdisk/det-hgtd/testbeam/February2024/Digitizer/run00420/Tek00019_ch2.wfm
 [*] Decoding done... takes [0.240s]
 [*] Ploting done... takes [0.000s]
 [*] Analyze done... takes [4.386s]
 [*] Fig Saving done... takes [0.000s]
reading data: /eos/atlas/atlascerngroupdisk/det-hgtd/testbeam/February2024/Digitizer/run00420/Tek00019_ch3.wfm
 [*] Decoding done... takes [0.102s]
 [*] Ploting done... takes [0.000s]
 [*] Analyze done... takes [3.908s]
 [*] Fig Saving done... takes [0.000s]
 file: Tek00019_ch3.wfm 19 3
 file: Tek00020_ch1.wfm
 file: Tek00020_ch2.wfm
 file: Tek00020_ch3.wfm
[1 2 3]
reading data: /eos/atlas/atlascerngroupdisk/det-hgtd/testbeam/February2024/Digitizer/run00420/Tek00020_ch1.wfm
 [*] Decoding done... takes [0.132s]
 [*] Ploting done... takes [0.000s]
 [*] Analyze done... takes [4.531s]
 [*] Fig Saving done... takes [0.000s]
reading data: /eos/atlas/atlascerngroupdisk/det-hgtd/testbeam/February2024/Digitizer/run00420/Tek00020_ch2.wfm
 [*] Decoding done... takes [0.231s]
 [*] Ploting done... takes [0.000s]
 [*] Analyze done... takes [4.524s]
 [*] Fig Saving done... takes [0.000s]
reading data: /eos/atlas/atlascerngroupdisk/det-hgtd/testbeam/February2024/Digitizer/run00420/Tek00020_ch3.wfm
 [*] Decoding done... takes [0.133s]
 [*] Ploting done... takes [0.000s]
 [*] Analyze done... takes [4.091s]
 [*] Fig Saving done... takes [0.000s]
 file: Tek00020_ch3.wfm 20 3
 file: Tek00021_ch1.wfm
 file: Tek00021_ch2.wfm
 file: Tek00021_ch3.wfm
[1 2 3]
reading data: /eos/atlas/atlascerngroupdisk/det-hgtd/testbeam/February2024/Digitizer/run00420/Tek00021_ch1.wfm
 [*] Decoding done... takes [0.129s]
 [*] Ploting done... takes [0.000s]
 [*] Analyze done... takes [4.727s]
 [*] Fig Saving done... takes [0.000s]
reading data: /eos/atlas/atlascerngroupdisk/det-hgtd/testbeam/February2024/Digitizer/run00420/Tek00021_ch2.wfm
 [*] Decoding done... takes [0.125s]
 [*] Ploting done... takes [0.000s]
 [*] Analyze done... takes [4.738s]
 [*] Fig Saving done... takes [0.000s]
reading data: /eos/atlas/atlascerngroupdisk/det-hgtd/testbeam/February2024/Digitizer/run00420/Tek00021_ch3.wfm
 [*] Decoding done... takes [0.135s]
 [*] Ploting done... takes [0.000s]
 [*] Analyze done... takes [4.111s]
 [*] Fig Saving done... takes [0.000s]
 file: Tek00021_ch3.wfm 21 3
 file: Tek00022_ch1.wfm
 file: Tek00022_ch2.wfm
 file: Tek00022_ch3.wfm
[1 2 3]
reading data: /eos/atlas/atlascerngroupdisk/det-hgtd/testbeam/February2024/Digitizer/run00420/Tek00022_ch1.wfm
 [*] Decoding done... takes [0.129s]
 [*] Ploting done... takes [0.000s]
 [*] Analyze done... takes [4.658s]
 [*] Fig Saving done... takes [0.000s]
reading data: /eos/atlas/atlascerngroupdisk/det-hgtd/testbeam/February2024/Digitizer/run00420/Tek00022_ch2.wfm
 [*] Decoding done... takes [0.104s]
 [*] Ploting done... takes [0.000s]
 [*] Analyze done... takes [4.523s]
 [*] Fig Saving done... takes [0.000s]
reading data: /eos/atlas/atlascerngroupdisk/det-hgtd/testbeam/February2024/Digitizer/run00420/Tek00022_ch3.wfm
 [*] Decoding done... takes [0.117s]
 [*] Ploting done... takes [0.000s]
 [*] Analyze done... takes [4.243s]
 [*] Fig Saving done... takes [0.000s]
 file: Tek00022_ch3.wfm 22 3
 file: Tek00023_ch1.wfm
 file: Tek00023_ch2.wfm
 file: Tek00023_ch3.wfm
[1 2 3]
reading data: /eos/atlas/atlascerngroupdisk/det-hgtd/testbeam/February2024/Digitizer/run00420/Tek00023_ch1.wfm
 [*] Decoding done... takes [0.122s]
 [*] Ploting done... takes [0.000s]
 [*] Analyze done... takes [4.916s]
 [*] Fig Saving done... takes [0.000s]
reading data: /eos/atlas/atlascerngroupdisk/det-hgtd/testbeam/February2024/Digitizer/run00420/Tek00023_ch2.wfm
 [*] Decoding done... takes [0.137s]
 [*] Ploting done... takes [0.000s]
 [*] Analyze done... takes [4.680s]
 [*] Fig Saving done... takes [0.000s]
reading data: /eos/atlas/atlascerngroupdisk/det-hgtd/testbeam/February2024/Digitizer/run00420/Tek00023_ch3.wfm
 [*] Decoding done... takes [0.295s]
 [*] Ploting done... takes [0.000s]
 [*] Analyze done... takes [4.235s]
 [*] Fig Saving done... takes [0.000s]
 file: Tek00023_ch3.wfm 23 3
 file: Tek00024_ch1.wfm
 file: Tek00024_ch2.wfm
 file: Tek00024_ch3.wfm
[1 2 3]
reading data: /eos/atlas/atlascerngroupdisk/det-hgtd/testbeam/February2024/Digitizer/run00420/Tek00024_ch1.wfm
 [*] Decoding done... takes [0.124s]
 [*] Ploting done... takes [0.000s]
 [*] Analyze done... takes [4.856s]
 [*] Fig Saving done... takes [0.000s]
reading data: /eos/atlas/atlascerngroupdisk/det-hgtd/testbeam/February2024/Digitizer/run00420/Tek00024_ch2.wfm
 [*] Decoding done... takes [0.119s]
 [*] Ploting done... takes [0.000s]
 [*] Analyze done... takes [4.627s]
 [*] Fig Saving done... takes [0.000s]
reading data: /eos/atlas/atlascerngroupdisk/det-hgtd/testbeam/February2024/Digitizer/run00420/Tek00024_ch3.wfm
 [*] Decoding done... takes [0.135s]
 [*] Ploting done... takes [0.000s]
 [*] Analyze done... takes [4.395s]
 [*] Fig Saving done... takes [0.000s]
 file: Tek00024_ch3.wfm 24 3
 file: Tek00025_ch1.wfm
 file: Tek00025_ch2.wfm
 file: Tek00025_ch3.wfm
[1 2 3]
reading data: /eos/atlas/atlascerngroupdisk/det-hgtd/testbeam/February2024/Digitizer/run00420/Tek00025_ch1.wfm
 [*] Decoding done... takes [0.104s]
 [*] Ploting done... takes [0.000s]
 [*] Analyze done... takes [4.890s]
 [*] Fig Saving done... takes [0.000s]
reading data: /eos/atlas/atlascerngroupdisk/det-hgtd/testbeam/February2024/Digitizer/run00420/Tek00025_ch2.wfm
 [*] Decoding done... takes [0.140s]
 [*] Ploting done... takes [0.000s]
 [*] Analyze done... takes [4.689s]
 [*] Fig Saving done... takes [0.000s]
reading data: /eos/atlas/atlascerngroupdisk/det-hgtd/testbeam/February2024/Digitizer/run00420/Tek00025_ch3.wfm
 [*] Decoding done... takes [0.097s]
 [*] Ploting done... takes [0.000s]
 [*] Analyze done... takes [4.221s]
 [*] Fig Saving done... takes [0.000s]
 file: Tek00025_ch3.wfm 25 3
 file: Tek00026_ch1.wfm
 file: Tek00026_ch2.wfm
 file: Tek00026_ch3.wfm
[1 2 3]
reading data: /eos/atlas/atlascerngroupdisk/det-hgtd/testbeam/February2024/Digitizer/run00420/Tek00026_ch1.wfm
 [*] Decoding done... takes [0.189s]
 [*] Ploting done... takes [0.000s]
 [*] Analyze done... takes [4.896s]
 [*] Fig Saving done... takes [0.000s]
reading data: /eos/atlas/atlascerngroupdisk/det-hgtd/testbeam/February2024/Digitizer/run00420/Tek00026_ch2.wfm
 [*] Decoding done... takes [0.151s]
 [*] Ploting done... takes [0.000s]
 [*] Analyze done... takes [4.753s]
 [*] Fig Saving done... takes [0.000s]
reading data: /eos/atlas/atlascerngroupdisk/det-hgtd/testbeam/February2024/Digitizer/run00420/Tek00026_ch3.wfm
 [*] Decoding done... takes [0.131s]
 [*] Ploting done... takes [0.000s]
 [*] Analyze done... takes [4.112s]
 [*] Fig Saving done... takes [0.000s]
 file: Tek00026_ch3.wfm 26 3
 file: Tek00027_ch1.wfm
 file: Tek00027_ch2.wfm
 file: Tek00027_ch3.wfm
[1 2 3]
reading data: /eos/atlas/atlascerngroupdisk/det-hgtd/testbeam/February2024/Digitizer/run00420/Tek00027_ch1.wfm
 [*] Decoding done... takes [0.169s]
 [*] Ploting done... takes [0.000s]
 [*] Analyze done... takes [4.982s]
 [*] Fig Saving done... takes [0.000s]
reading data: /eos/atlas/atlascerngroupdisk/det-hgtd/testbeam/February2024/Digitizer/run00420/Tek00027_ch2.wfm
 [*] Decoding done... takes [0.137s]
 [*] Ploting done... takes [0.000s]
 [*] Analyze done... takes [4.770s]
 [*] Fig Saving done... takes [0.000s]
reading data: /eos/atlas/atlascerngroupdisk/det-hgtd/testbeam/February2024/Digitizer/run00420/Tek00027_ch3.wfm
 [*] Decoding done... takes [0.145s]
 [*] Ploting done... takes [0.000s]
 [*] Analyze done... takes [4.323s]
 [*] Fig Saving done... takes [0.000s]
 file: Tek00027_ch3.wfm 27 3
 file: Tek00028_ch1.wfm
 file: Tek00028_ch2.wfm
 file: Tek00028_ch3.wfm
[1 2 3]
reading data: /eos/atlas/atlascerngroupdisk/det-hgtd/testbeam/February2024/Digitizer/run00420/Tek00028_ch1.wfm
 [*] Decoding done... takes [0.172s]
 [*] Ploting done... takes [0.000s]
 [*] Analyze done... takes [4.977s]
 [*] Fig Saving done... takes [0.000s]
reading data: /eos/atlas/atlascerngroupdisk/det-hgtd/testbeam/February2024/Digitizer/run00420/Tek00028_ch2.wfm
 [*] Decoding done... takes [0.145s]
 [*] Ploting done... takes [0.000s]
 [*] Analyze done... takes [4.660s]
 [*] Fig Saving done... takes [0.000s]
reading data: /eos/atlas/atlascerngroupdisk/det-hgtd/testbeam/February2024/Digitizer/run00420/Tek00028_ch3.wfm
 [*] Decoding done... takes [0.351s]
 [*] Ploting done... takes [0.000s]
 [*] Analyze done... takes [4.147s]
 [*] Fig Saving done... takes [0.000s]
 file: Tek00028_ch3.wfm 28 3
 file: Tek00029_ch1.wfm
 file: Tek00029_ch2.wfm
 file: Tek00029_ch3.wfm
[1 2 3]
reading data: /eos/atlas/atlascerngroupdisk/det-hgtd/testbeam/February2024/Digitizer/run00420/Tek00029_ch1.wfm
 [*] Decoding done... takes [0.117s]
 [*] Ploting done... takes [0.000s]
 [*] Analyze done... takes [4.674s]
 [*] Fig Saving done... takes [0.000s]
reading data: /eos/atlas/atlascerngroupdisk/det-hgtd/testbeam/February2024/Digitizer/run00420/Tek00029_ch2.wfm
 [*] Decoding done... takes [0.117s]
 [*] Ploting done... takes [0.000s]
 [*] Analyze done... takes [4.476s]
 [*] Fig Saving done... takes [0.000s]
reading data: /eos/atlas/atlascerngroupdisk/det-hgtd/testbeam/February2024/Digitizer/run00420/Tek00029_ch3.wfm
 [*] Decoding done... takes [0.101s]
 [*] Ploting done... takes [0.000s]
 [*] Analyze done... takes [4.068s]
 [*] Fig Saving done... takes [0.000s]
 file: Tek00029_ch3.wfm 29 3
 file: Tek00030_ch1.wfm
 file: Tek00030_ch2.wfm
 file: Tek00030_ch3.wfm
[1 2 3]
reading data: /eos/atlas/atlascerngroupdisk/det-hgtd/testbeam/February2024/Digitizer/run00420/Tek00030_ch1.wfm
 [*] Decoding done... takes [0.188s]
 [*] Ploting done... takes [0.000s]
 [*] Analyze done... takes [4.498s]
 [*] Fig Saving done... takes [0.000s]
reading data: /eos/atlas/atlascerngroupdisk/det-hgtd/testbeam/February2024/Digitizer/run00420/Tek00030_ch2.wfm
 [*] Decoding done... takes [0.109s]
 [*] Ploting done... takes [0.000s]
 [*] Analyze done... takes [4.578s]
 [*] Fig Saving done... takes [0.000s]
reading data: /eos/atlas/atlascerngroupdisk/det-hgtd/testbeam/February2024/Digitizer/run00420/Tek00030_ch3.wfm
 [*] Decoding done... takes [0.171s]
 [*] Ploting done... takes [0.000s]
 [*] Analyze done... takes [4.103s]
 [*] Fig Saving done... takes [0.000s]
 file: Tek00030_ch3.wfm 30 3
 file: Tek00031_ch1.wfm
 file: Tek00031_ch2.wfm
 file: Tek00031_ch3.wfm
[1 2 3]
reading data: /eos/atlas/atlascerngroupdisk/det-hgtd/testbeam/February2024/Digitizer/run00420/Tek00031_ch1.wfm
 [*] Decoding done... takes [0.143s]
 [*] Ploting done... takes [0.000s]
 [*] Analyze done... takes [4.960s]
 [*] Fig Saving done... takes [0.000s]
reading data: /eos/atlas/atlascerngroupdisk/det-hgtd/testbeam/February2024/Digitizer/run00420/Tek00031_ch2.wfm
 [*] Decoding done... takes [0.148s]
 [*] Ploting done... takes [0.000s]
 [*] Analyze done... takes [4.714s]
 [*] Fig Saving done... takes [0.000s]
reading data: /eos/atlas/atlascerngroupdisk/det-hgtd/testbeam/February2024/Digitizer/run00420/Tek00031_ch3.wfm
 [*] Decoding done... takes [0.139s]
 [*] Ploting done... takes [0.000s]
 [*] Analyze done... takes [4.188s]
 [*] Fig Saving done... takes [0.000s]
 file: Tek00031_ch3.wfm 31 3
 file: Tek00032_ch1.wfm
 file: Tek00032_ch2.wfm
 file: Tek00032_ch3.wfm
[1 2 3]
reading data: /eos/atlas/atlascerngroupdisk/det-hgtd/testbeam/February2024/Digitizer/run00420/Tek00032_ch1.wfm
 [*] Decoding done... takes [0.164s]
 [*] Ploting done... takes [0.000s]
 [*] Analyze done... takes [4.893s]
 [*] Fig Saving done... takes [0.000s]
reading data: /eos/atlas/atlascerngroupdisk/det-hgtd/testbeam/February2024/Digitizer/run00420/Tek00032_ch2.wfm
 [*] Decoding done... takes [0.133s]
 [*] Ploting done... takes [0.000s]
 [*] Analyze done... takes [4.604s]
 [*] Fig Saving done... takes [0.000s]
reading data: /eos/atlas/atlascerngroupdisk/det-hgtd/testbeam/February2024/Digitizer/run00420/Tek00032_ch3.wfm
 [*] Decoding done... takes [0.159s]
 [*] Ploting done... takes [0.000s]
 [*] Analyze done... takes [4.213s]
 [*] Fig Saving done... takes [0.000s]
 file: Tek00032_ch3.wfm 32 3
 file: Tek00033_ch1.wfm
 file: Tek00033_ch2.wfm
 file: Tek00033_ch3.wfm
[1 2 3]
reading data: /eos/atlas/atlascerngroupdisk/det-hgtd/testbeam/February2024/Digitizer/run00420/Tek00033_ch1.wfm
 [*] Decoding done... takes [0.109s]
 [*] Ploting done... takes [0.000s]
 [*] Analyze done... takes [4.791s]
 [*] Fig Saving done... takes [0.000s]
reading data: /eos/atlas/atlascerngroupdisk/det-hgtd/testbeam/February2024/Digitizer/run00420/Tek00033_ch2.wfm
 [*] Decoding done... takes [0.128s]
 [*] Ploting done... takes [0.000s]
 [*] Analyze done... takes [4.680s]
 [*] Fig Saving done... takes [0.000s]
reading data: /eos/atlas/atlascerngroupdisk/det-hgtd/testbeam/February2024/Digitizer/run00420/Tek00033_ch3.wfm
 [*] Decoding done... takes [0.130s]
 [*] Ploting done... takes [0.000s]
 [*] Analyze done... takes [4.294s]
 [*] Fig Saving done... takes [0.000s]
 file: Tek00033_ch3.wfm 33 3
 file: Tek00034_ch1.wfm
 file: Tek00034_ch2.wfm
 file: Tek00034_ch3.wfm
[1 2 3]
reading data: /eos/atlas/atlascerngroupdisk/det-hgtd/testbeam/February2024/Digitizer/run00420/Tek00034_ch1.wfm
 [*] Decoding done... takes [0.027s]
 [*] Ploting done... takes [0.000s]
 [*] Analyze done... takes [0.069s]
 [*] Fig Saving done... takes [0.000s]
reading data: /eos/atlas/atlascerngroupdisk/det-hgtd/testbeam/February2024/Digitizer/run00420/Tek00034_ch2.wfm
 [*] Decoding done... takes [0.093s]
 [*] Ploting done... takes [0.000s]
 [*] Analyze done... takes [0.069s]
 [*] Fig Saving done... takes [0.000s]
reading data: /eos/atlas/atlascerngroupdisk/det-hgtd/testbeam/February2024/Digitizer/run00420/Tek00034_ch3.wfm
 [*] Decoding done... takes [0.029s]
 [*] Ploting done... takes [0.000s]
 [*] Analyze done... takes [0.058s]
 [*] Fig Saving done... takes [0.000s]
 file: Tek00034_ch3.wfm 34 3
